                                           PRODUCT CATEGORIES;;;;
S.No;Category ;Sub Category;;
1;;Fruits & Vegetables;1;
;Fruits & Vegetables;Fruits;1;
;Fruits & Vegetables;Vegetables;1;
2;;Snacks & Chocolates;1;http://52.33.163.150/img/c/14.jpg
;Snacks & Chocolates;Chips;1;
;Snacks & Chocolates;Biscuits;1;
;Snacks & Chocolates;Cereals ;1;
;Snacks & Chocolates;Chocolates;1;
;Snacks & Chocolates;Candy and Gums;1;
;Snacks & Chocolates;Dry Fruits & Nuts;1;
3;;Food & Grocery;1;http://52.33.163.150/img/c/15.jpg
;Food & Grocery;Canned Food ;1;
;Food & Grocery;Spices;1;
;Food & Grocery;Rice & Flour;1;
;Food & Grocery;Sauces & Spreads;1;
;Food & Grocery;Packed Food;1;
;Food & Grocery;Frozen ;1;
;Food & Grocery;Additives;1;
4;;Bakery & Dairy ;1;http://52.33.163.150/img/c/16.jpg
;Bakery & Dairy ;Bakery;1;
;Bakery & Dairy ;Dairy ;1;
;Bakery & Dairy ;Ice Creams;1;
;Bakery & Dairy ;Eggs;1;
5;;Beverages;1;http://52.33.163.150/img/c/17.jpg
;Beverages;Soft Drinks;1;
;Beverages;Energy Drinks;1;
;Beverages;Mineral Water;1;
;Beverages;Juices;1;
;Beverages;Tea & Coffee;1;
;Beverages;Dairy Drinks;1;
;Beverages;Healthy Drinks;1;
6;;Cosmetics & Personal care;1;http://52.35.37.82/img/c/34.jpg
;Cosmetics & Personal care;Hair Care;1;
;Cosmetics & Personal care;Body & Skin Care;1;
;Cosmetics & Personal care;Soaps & Hand Wash;1;
;Cosmetics & Personal care;Facial Care;1;
;Cosmetics & Personal care;Dental Care;1;
;Cosmetics & Personal care;Medicines;1;
;Cosmetics & Personal care;Condoms;1;
;Cosmetics & Personal care;Beard Care;1;
;Cosmetics & Personal care;Sanitary Pads ;1;
7;;Household & Non Food;1;http://52.33.163.150/img/c/19.jpg
;Household & Non Food;Air Freshners;1;
;Household & Non Food;Laundry Products;1;
;Household & Non Food;Cleaners;1;
;Household & Non Food;Tissues;1;
;Household & Non Food;Battery & Electricals;1;
;Household & Non Food;Pet Food;1;
;Household & Non Food;Barbecue;1;
;Household & Non Food;Containers;1;
8;;Baby Care;1;http://52.33.163.150/img/c/20.jpg
;Baby Care;Diapers & Wipes;1;
;Baby Care;Lotions & Creams;1;
;Baby Care;Baby Food;1;
9;;Cigarattes & Smoking Goods;1;http://52.33.163.150/img/c/21.jpg
;Cigarattes & Smoking Goods;Cigarettes;1;
;Cigarattes & Smoking Goods;Cigars;1;
;Cigarattes & Smoking Goods;Smoking Goods;1;
;Cigarattes & Smoking Goods;Sheesha;1;
10;;Promotions & Offers;1;http://52.33.163.150/img/c/22.jpg
