'"Product Name"','"Product Barcode"','"Product Item Code"','"Sub Category "','"Image"','"Actual price*"','"Discount amount"','"Product Variance"','"Product Description"','"Available qty"','"Tax Rule"'
'"test1"',50500833936930,'"KL358001 "','"Cereals"','"/home/akshatha/Downloads/bakaala products/IMAGES_400X400/KELLOGS CORN FLAKES.png"',0.325,0.125,'"Weight:24 GM"',,10,0
'"test2"',84100000020904,'"N029800"','"Biscuits"','"/home/akshatha/Downloads/bakaala products/IMAGES_400X400/CHIPS AHOY.png"',0.525,0.2,'"Weight:128 GM"',,1,0
