"ID";"Product Name";"Product Barcode";"Product Item Code";"Sub Category";"Image";"Actual price*";"Discount amount";"Product Variance";"Product Description"
2;"LUISINE SLICED BROWN BREAD";6281100081029;8013;"Bread & Bakery";"http://2261bca0.ngrok.com/baqala/Bakery%20%26%20Dairy%20Products/Bread%20%26%20Bakery/400x400/IMG_3662-copy.png";0.55;0.55;0;"600 GM"
3;"LUISINE SLICED WHITE BREAD";6281100081036;8014;"Bread & Bakery";"http://2261bca0.ngrok.com/baqala/Bakery%20&%20Dairy%20Products/Bread%20&%20Bakery/400x400/IMG_3658-copy.png";0.425;0.425;0;"600 GM"
4;"LUISINE CHEESE PUFF";6281100084013;8627;"Bread & Bakery";"http://2261bca0.ngrok.com/baqala/Bakery%20&%20Dairy%20Products/Bread%20&%20Bakery/400x400/IMG_3673.png";0.125;0.125;0;"60 GM"
