Vloookup New ID;Product Name;Product Barcode;Product Item Code;Sub Category;Attribute;Value;
36;KIRI CHEESE 12 PORTION;3073780624435;   VQ23NA;;"measure:1:1;actualPrice:1:2;discountPrice:1:3";"240 GM:1;1.025:2;0:3";http://2261bca0.ngrok.com/baqala/Bakery & Dairy Products/Dairy Products/400x400/IMG_3610.png
37;KIRI CHEESE 6 PORTION;3073786863111;   VQ21NA;;"measure:1:1;actualPrice:1:2;discountPrice:1:3";"108 GM:1;0.525:2;0:3";
42;ALMARAI YOGHURT FULL FAT ;8281007032872;AL500;;"measure:1:1;actualPrice:1:2;discountPrice:1:3";"500 GM:1;0.400:2;0:3";http://2261bca0.ngrok.com/baqala/Bakery & Dairy Products/Dairy Products/400x400/IMG_3510-copy.png
43;ALMARAI YOGHURT FULL FAT ;6281007063067;3193;;"measure:1:1;actualPrice:1:2;discountPrice:1:3";"1 KG:1;0.650:2;0:3";http://2261bca0.ngrok.com/baqala/Bakery & Dairy Products/Dairy Products/400x400/IMG_3523-copy.png
60;BASKIN ROBBINS VANILLA;36631079702;110020020;;"measure:1:1;actualPrice:1:2;discountPrice:1:3";"1 L:1;3.850:2;0:3";
62;BASKIN ROBBINS VANILLA;36631083402;110020028;;"measure:1:1;actualPrice:1:2;discountPrice:1:3";"500 ML:1;2.500:2;0:3";http://2261bca0.ngrok.com/baqala/Bakery & Dairy Products/Ice Cream/400x400/IMG_3973.png
68;LONDON DAIRY COOKIES & CREAM;6291003096488;   UX171N1;;"measure:1:1;actualPrice:1:2;discountPrice:1:3";"1 L:1;2.900:2;0:3";http://2261bca0.ngrok.com/baqala/Bakery & Dairy Products/Ice Cream/400x400/IMG_3982-copy.png
76;LONDON DAIRY  COOKIES N CREAM;6291003096228;   UX208N1;;"measure:1:1;actualPrice:1:2;discountPrice:1:3";"125 ML:1;0.600:2;0:3";
71;LONDON DAIRY COOKIES & CREAM;6291003095917;   UX170N;;"measure:1:1;actualPrice:1:2;discountPrice:1:3";"500 ML:1;1.800:2;0:3";
69;LONDON DAIRY DOUBLE CHOCOLATE;6291003096433;   UX157N1;;"measure:1:1;actualPrice:1:2;discountPrice:1:3";"1 L:1;2.900:2;0:3";
73;LONDON DAIRY DOUBLE CHOCOLATE;6291003096174;   UX196N1;;"measure:1:1;actualPrice:1:2;discountPrice:1:3";"150 ML:1;0.600:2;0:3";
70;LONDON DAIRY VANILLA;6291003096464;   UX173N1;;"measure:1:1;actualPrice:1:2;discountPrice:1:3";"1 L:1;2.700:2;0:3";
72;LONDON DAIRY VANILLA;6291003095894;   UX172N;;"measure:1:1;actualPrice:1:2;discountPrice:1:3";"500 ML:1;1.800:2;0:3";http://2261bca0.ngrok.com/baqala/Bakery & Dairy Products/Ice Cream/400x400/IMG_3964-copy.png
74;LONDON DAIRY VANILLA;6291003096204;   UX210N1;;"measure:1:1;actualPrice:1:2;discountPrice:1:3";"150 ML:1;0.600:2;0:3";
162;MIRINDA CITRUS;12000804533;30107;Soft Drinks;"measure:1:1;actualPrice:1:2;discountPrice:1:3";"355 ML:1; 0.150:2;0:3";http://2261bca0.ngrok.com/baqala/Beverages/Soft Drinks/400x400/IMG_0982.png
163;MIRINDA CITRUS 24 PACK;12000805790;30107;Soft Drinks;"measure:1:1;actualPrice:1:2;discountPrice:1:3";"355 ML:1; 3.600:2;0:3";http://2261bca0.ngrok.com/baqala/Beverages/Soft Drinks/400x400/IMG_2042.png
119;MIRINDA CITRUS;12000520372;40307;Soft Drinks;"measure:1:1;actualPrice:1:2;discountPrice:1:3";"1.250 L:1; 0.300:2;0:3";
132;MIRINDA CITRUS ;12000804564;30157;Soft Drinks;"measure:1:1;actualPrice:1:2;discountPrice:1:3";"500 ML:1; 0.250:2;0:3";http://2261bca0.ngrok.com/baqala/Beverages/Soft Drinks/400x400/IMG_3801.png
95;MIRINDA CITRUS;12000804717;40107;Soft Drinks;"measure:1:1;actualPrice:1:2;discountPrice:1:3";"2.250 L:1; 0.500:2;0:3";http://2261bca0.ngrok.com/baqala/Beverages/Soft Drinks/400x400/IMG_1319-copy.png
96;MIRINDA CITRUS 6 PACK;12000805769;40107;Soft Drinks;"measure:1:1;actualPrice:1:2;discountPrice:1:3";"2.250 L:1; 3.000:2;0:3";
135;7 UP ;12000002656;30105;Soft Drinks;"measure:1:1;actualPrice:1:2;discountPrice:1:3";"355 ML:1; 0.150:2;0:3";http://2261bca0.ngrok.com/baqala/Beverages/Soft Drinks/400x400/IMG_0965.png
126;7 UP;12000804137;30155;Soft Drinks;"measure:1:1;actualPrice:1:2;discountPrice:1:3";"500 ML:1; 0.250:2;0:3";http://2261bca0.ngrok.com/baqala/Beverages/Soft Drinks/400x400/IMG_3798.png
122; 7 UP ;12000520327;40305;Soft Drinks;"measure:1:1;actualPrice:1:2;discountPrice:1:3";"1.250 L:1; 0.300:2;0:3";
97;7 UP ;12000800344;40105;Soft Drinks;"measure:1:1;actualPrice:1:2;discountPrice:1:3";"2.250 L:1; 0.500:2;0:3";http://2261bca0.ngrok.com/baqala/Beverages/Soft Drinks/400x400/IMG_1299-copy.png
98;7 UP 6 PACK;12000805776;40105;Soft Drinks;"measure:1:1;actualPrice:1:2;discountPrice:1:3";"2.250 L:1; 3.000:2;0:3";
197;COCA COLA BOTTLE;54492509;10331700;Soft Drinks;"measure:1:1;actualPrice:1:2;discountPrice:1:3";"250 ML:1; 0.200:2;0:3";http://2261bca0.ngrok.com/baqala/Beverages/Soft Drinks/400x400/IMG_1232.png
198;COCA COLA BOTTLE 24 PACK;5449000019127;10331700;Soft Drinks;"measure:1:1;actualPrice:1:2;discountPrice:1:3";"250 ML:1; 4.800:2;0:3";http://2261bca0.ngrok.com/baqala/Beverages/Soft Drinks/400x400/IMG_2201.png
143;COCA COLA ;5449000043382;10201700;Soft Drinks;"measure:1:1;actualPrice:1:2;discountPrice:1:3";"355 ML:1; 0.150:2;0:3";http://2261bca0.ngrok.com/baqala/Beverages/Soft Drinks/400x400/IMG_1066.png
144;COCA COLA 24 PACK;5449000000279;10201700;Soft Drinks;"measure:1:1;actualPrice:1:2;discountPrice:1:3";"355 ML:1; 3.600:2;0:3";
127;COCA COLA;54491472;10641700;Soft Drinks;"measure:1:1;actualPrice:1:2;discountPrice:1:3";"500 ML:1; 0.200:2;0:3";http://2261bca0.ngrok.com/baqala/Beverages/Soft Drinks/400x400/IMG_1152-copy.png
115;COCA COLA ;5449000028921;10701200;Soft Drinks;"measure:1:1;actualPrice:1:2;discountPrice:1:3";"1.250 L:1; 0.300:2;0:3";http://2261bca0.ngrok.com/baqala/Beverages/Soft Drinks/400x400/IMG_1247-copy.png
99;COCA COLA;5449000025173;10761200;Soft Drinks;"measure:1:1;actualPrice:1:2;discountPrice:1:3";"2.250 L:1; 0.500:2;0:3";http://2261bca0.ngrok.com/baqala/Beverages/Soft Drinks/400x400/IMG_1313-copy.png
100;COCA COLA  6 PACK;5449000039880;10761200;Soft Drinks;"measure:1:1;actualPrice:1:2;discountPrice:1:3";"2.250 L:1; 3.000:2;0:3";http://2261bca0.ngrok.com/baqala/Beverages/Soft Drinks/400x400/IMG_1544 (2).png
101;COCA COLA LIGHT ;5449000037978;11761200;Soft Drinks;"measure:1:1;actualPrice:1:2;discountPrice:1:3";"2.250 L:1; 0.500:2;0:3";http://2261bca0.ngrok.com/baqala/Beverages/Soft Drinks/400x400/dsc_0034_1.png
102;COCA COLA LIGHT  6 PACK;5449000090751;11761200;Soft Drinks;"measure:1:1;actualPrice:1:2;discountPrice:1:3";"2.250 L:1; 3.000:2;0:3";
146;COCA COLA LIGHT;5449000050205;11201700;Soft Drinks;"measure:1:1;actualPrice:1:2;discountPrice:1:3";"355 ML:1; 0.150:2;0:3";http://2261bca0.ngrok.com/baqala/Beverages/Soft Drinks/400x400/IMG_1044.png
145;COCA COLA LIGHT 24 PACK;5449000044549;11201700;Soft Drinks;"measure:1:1;actualPrice:1:2;discountPrice:1:3";"355 ML:1; 3.600:2;0:3";
199;COCA COLA LIGHT ;54492820;11331700;Soft Drinks;"measure:1:1;actualPrice:1:2;discountPrice:1:3";"250 ML:1; 0.200:2;0:3";http://2261bca0.ngrok.com/baqala/Beverages/Soft Drinks/400x400/IMG_1223-copy.png
200;COCA COLA LIGHT 24 PACK;5449000019134;11331700;Soft Drinks;"measure:1:1;actualPrice:1:2;discountPrice:1:3";"250 ML:1; 4.800:2;0:3";http://2261bca0.ngrok.com/baqala/Beverages/Soft Drinks/400x400/IMG_2177.png
155;FANTA CITRUS ;5449000000859;33201700;Soft Drinks;"measure:1:1;actualPrice:1:2;discountPrice:1:3";"355 ML:1; 0.150:2;0:3";http://2261bca0.ngrok.com/baqala/Beverages/Soft Drinks/400x400/IMG_0944.png
156;FANTA CITRUS 24 PACK;5449000092663;33201700;Soft Drinks;"measure:1:1;actualPrice:1:2;discountPrice:1:3";"355 ML:1; 3.600:2;0:3";http://2261bca0.ngrok.com/baqala/Beverages/Soft Drinks/400x400/IMG_2055.png
117;FANTA CITRUS ;5449000129024;33701200;Soft Drinks;"measure:1:1;actualPrice:1:2;discountPrice:1:3";"1.250 L:1; 0.300:2;0:3";
103;FANTA CITRUS ;5449000040985;33761200;Soft Drinks;"measure:1:1;actualPrice:1:2;discountPrice:1:3";"2.250 L:1; 0.500:2;0:3";http://2261bca0.ngrok.com/baqala/Beverages/Soft Drinks/400x400/IMG_1252-copy.png
104;FANTA CITRUS 6 PACK;5449000039910;33761200;Soft Drinks;"measure:1:1;actualPrice:1:2;discountPrice:1:3";"2.250 L:1; 3.000:2;0:3";http://2261bca0.ngrok.com/baqala/Beverages/Soft Drinks/400x400/IMG_1522 (2).png
105;FANTA ORANGE;5449000034113;30761200;Soft Drinks;"measure:1:1;actualPrice:1:2;discountPrice:1:3";"2.250 L:1; 0.500:2;0:3";
106;FANTA ORANGE 6 PACK;5449000039903;30761200;Soft Drinks;"measure:1:1;actualPrice:1:2;discountPrice:1:3";"2.250 L:1; 3.000:2;0:3";http://2261bca0.ngrok.com/baqala/Beverages/Soft Drinks/400x400/IMG_1537 (2).png
124;FANTA ORANGE;5449000028938;30701200;Soft Drinks;"measure:1:1;actualPrice:1:2;discountPrice:1:3";"1.250 L:1; 0.300:2;0:3";
130;FANTA ORANGE;40822938;30641700;Soft Drinks;"measure:1:1;actualPrice:1:2;discountPrice:1:3";"500 ML:1; 0.200:2;0:3";http://2261bca0.ngrok.com/baqala/Beverages/Soft Drinks/400x400/IMG_1165-copy.png
158;FANTA ORANGE;5449000011527;30201700;Soft Drinks;"measure:1:1;actualPrice:1:2;discountPrice:1:3";"355 ML:1; 0.150:2;0:3";http://2261bca0.ngrok.com/baqala/Beverages/Soft Drinks/400x400/IMG_0968.png
159;FANTA ORANGE 24 PACK;5449000011541;30201700;Soft Drinks;"measure:1:1;actualPrice:1:2;discountPrice:1:3";"355 ML:1; 3.600:2;0:3";http://2261bca0.ngrok.com/baqala/Beverages/Soft Drinks/400x400/IMG_2058.png
202;FANTA ORANGE BOTTLE;90495793;30331700;Soft Drinks;"measure:1:1;actualPrice:1:2;discountPrice:1:3";"250 ML:1; 0.200:2;0:3";http://2261bca0.ngrok.com/baqala/Beverages/Soft Drinks/400x400/IMG_2193.png
203;FANTA STRAWBERRY ;50112142;34331700;Soft Drinks;"measure:1:1;actualPrice:1:2;discountPrice:1:3";"250 ML:1; 0.200:2;0:3";
204;FANTA STRAWBERRY 24 PACK;5449000062604;34331700;Soft Drinks;"measure:1:1;actualPrice:1:2;discountPrice:1:3";"250 ML:1; 4.800:2;0:3";
160;FANTA STRAWBERRY;5449000061164;34201700;Soft Drinks;"measure:1:1;actualPrice:1:2;discountPrice:1:3";"355 ML:1; 0.150:2;0:3";http://2261bca0.ngrok.com/baqala/Beverages/Soft Drinks/400x400/IMG_0969.png
161;FANTA STRAWBERRY  24 PACK;5449000092670;34201700;Soft Drinks;"measure:1:1;actualPrice:1:2;discountPrice:1:3";"355 ML:1; 3.600:2;0:3";
131;FANTA STRAWBERRY;54493186;34641700;Soft Drinks;"measure:1:1;actualPrice:1:2;discountPrice:1:3";"500 ML:1; 0.200:2;0:3";http://2261bca0.ngrok.com/baqala/Beverages/Soft Drinks/400x400/IMG_1168-copy.png
118;FANTA STRAWBERRY ;5449000002891;34701200;Soft Drinks;"measure:1:1;actualPrice:1:2;discountPrice:1:3";"1.250 L:1; 0.300:2;0:3";http://2261bca0.ngrok.com/baqala/Beverages/Soft Drinks/400x400/IMG_1321-copy.png
107;FANTA STRAWBERRY;5449000061133;34761200;Soft Drinks;"measure:1:1;actualPrice:1:2;discountPrice:1:3";"2.250 L:1; 0.500:2;0:3";http://2261bca0.ngrok.com/baqala/Beverages/Soft Drinks/400x400/IMG_1308-copy.png
108;FANTA STRAWBERRY 6 PACK;5449000067920;34761200;Soft Drinks;"measure:1:1;actualPrice:1:2;discountPrice:1:3";"2.250 L:1; 3.000:2;0:3";http://2261bca0.ngrok.com/baqala/Beverages/Soft Drinks/400x400/IMG_2235.png
164;MIRINDA ORANGE;12000005442;30103;Soft Drinks;"measure:1:1;actualPrice:1:2;discountPrice:1:3";"355 ML:1; 0.150:2;0:3";http://2261bca0.ngrok.com/baqala/Beverages/Soft Drinks/400x400/IMG_0998.png
165;MIRINDA ORANGE 24 PACK;12000805783;30103;Soft Drinks;"measure:1:1;actualPrice:1:2;discountPrice:1:3";"355 ML:1; 3.600:2;0:3";http://2261bca0.ngrok.com/baqala/Beverages/Soft Drinks/400x400/IMG_2021.png
120;MIRINDA ORANGE;12000520358;40303;Soft Drinks;"measure:1:1;actualPrice:1:2;discountPrice:1:3";"1.250 L:1; 0.300:2;0:3";http://2261bca0.ngrok.com/baqala/Beverages/Soft Drinks/400x400/IMG_1256-copy.png
109;MIRINDA ORANGE;12000800191;40103;Soft Drinks;"measure:1:1;actualPrice:1:2;discountPrice:1:3";"2.250 L:1; 0.500:2;0:3";http://2261bca0.ngrok.com/baqala/Beverages/Soft Drinks/400x400/IMG_1256-copy.png
110;MIRINDA ORANGE 6 PACK;12000805103;40103;Soft Drinks;"measure:1:1;actualPrice:1:2;discountPrice:1:3";"2.250 L:1; 3.000:2;0:3";
174;PEPSI ;12000000133;   SD16;Soft Drinks;"measure:1:1;actualPrice:1:2;discountPrice:1:3";"355 ML:1; 0.150:2;0:3";http://2261bca0.ngrok.com/baqala/Beverages/Soft Drinks/400x400/IMG_1036.png
175;PEPSI 24 PACK;12000000171;   SD16;Soft Drinks;"measure:1:1;actualPrice:1:2;discountPrice:1:3";"355 ML:1; 3.600:2;0:3";http://2261bca0.ngrok.com/baqala/Beverages/Soft Drinks/400x400/IMG_2047.png
133;PEPSI ;12000800061;30151;Soft Drinks;"measure:1:1;actualPrice:1:2;discountPrice:1:3";"500 ML:1; 0.250:2;0:3";http://2261bca0.ngrok.com/baqala/Beverages/Soft Drinks/400x400/IMG_3787.png
123;PEPSI ;12000020742;40301;Soft Drinks;"measure:1:1;actualPrice:1:2;discountPrice:1:3";"1.250 L:1; 0.300:2;0:3";
111;PEPSI;12000004070;40101;Soft Drinks;"measure:1:1;actualPrice:1:2;discountPrice:1:3";"2.250 L:1; 0.500:2;0:3";http://2261bca0.ngrok.com/baqala/Beverages/Soft Drinks/400x400/IMG_1311-copy.png
112;PEPSI 6 PACK;12000805097;40101;Soft Drinks;"measure:1:1;actualPrice:1:2;discountPrice:1:3";"2.250 L:1; 3.000:2;0:3";
205;SPRITE;90495816;20331700;Soft Drinks;"measure:1:1;actualPrice:1:2;discountPrice:1:3";"250 ML:1; 0.200:2;0:3";
205;SPRITE 24 PACK;90495816;20331700;Soft Drinks;"measure:1:1;actualPrice:1:2;discountPrice:1:3";"250 ML:1; 4.800:2;0:3";http://2261bca0.ngrok.com/baqala/Beverages/Soft Drinks/400x400/IMG_2206.png
178;SPRITE;5449000061157;20201700;Soft Drinks;"measure:1:1;actualPrice:1:2;discountPrice:1:3";"355 ML:1; 0.150:2;0:3";http://2261bca0.ngrok.com/baqala/Beverages/Soft Drinks/400x400/IMG_0597.png
179;SPRITE 24 PACK;5449000001481;20201700;Soft Drinks;"measure:1:1;actualPrice:1:2;discountPrice:1:3";"355 ML:1; 3.600:2;0:3";http://2261bca0.ngrok.com/baqala/Beverages/Soft Drinks/400x400/IMG_2060.png
134;SPRITE;54491069;20641700;Soft Drinks;"measure:1:1;actualPrice:1:2;discountPrice:1:3";"500 ML:1; 0.200:2;0:3";http://2261bca0.ngrok.com/baqala/Beverages/Soft Drinks/400x400/IMG_1154.png
125;SPRITE;5449000028976;20701200;Soft Drinks;"measure:1:1;actualPrice:1:2;discountPrice:1:3";"1.250 L:1; 0.300:2;0:3";http://2261bca0.ngrok.com/baqala/Beverages/Soft Drinks/400x400/IMG_1326-copy.png
113;SPRITE;5449000034137;20761200;Soft Drinks;"measure:1:1;actualPrice:1:2;discountPrice:1:3";"2.250 L:1; 0.500:2;0:3";http://2261bca0.ngrok.com/baqala/Beverages/Soft Drinks/400x400/IMG_1326-copy.png
114;SPRITE  24 PACK;5449000090768;20761200;Soft Drinks;"measure:1:1;actualPrice:1:2;discountPrice:1:3";"2.250 L:1; 3.000:2;0:3";
129;COCA COLA ZERO;5449000131836;12641700;Soft Drinks;"measure:1:1;actualPrice:1:2;discountPrice:1:3";"500 ML:1; 0.200:2;0:3";http://2261bca0.ngrok.com/baqala/Beverages/Soft Drinks/400x400/IMG_1159-copy.png
147;COCA COLA ZERO;5449000131805;12201700;Soft Drinks;"measure:1:1;actualPrice:1:2;discountPrice:1:3";"355 ML:1; 0.150:2;0:3";http://2261bca0.ngrok.com/baqala/Beverages/Soft Drinks/400x400/IMG_1058.png
201;COCA COLA ZERO ;90338120;12331700;Soft Drinks;"measure:1:1;actualPrice:1:2;discountPrice:1:3";"250 ML:1; 0.200:2;0:3";http://2261bca0.ngrok.com/baqala/Beverages/Soft Drinks/400x400/IMG_1215-copy.png
138;7 UP DIET CAN ;12000017360;30106;Soft Drinks;"measure:1:1;actualPrice:1:2;discountPrice:1:3";"355 ML:1; 0.150:2;0:3";http://2261bca0.ngrok.com/baqala/Beverages/Soft Drinks/400x400/IMG_1013.png
139;7 UP DIET CAN 24 PACK;12000017377;30106;Soft Drinks;"measure:1:1;actualPrice:1:2;discountPrice:1:3";"355 ML:1; 3.600:2;0:3";http://2261bca0.ngrok.com/baqala/Beverages/Soft Drinks/400x400/IMG_2034.png
251;MONSTER ENERGY ;5060166691660;   1860-00001;Energy Drinks;"measure:1:1;actualPrice:1:2;discountPrice:1:3";"500 ML:1;0.600:2;0:3";http://2261bca0.ngrok.com/baqala/Beverages/Energy Drinks/400x400/IMG_1104.png
252;MONSTER ENERGY EXPORT ;5060166691721;   1860-00002;Energy Drinks;"measure:1:1;actualPrice:1:2;discountPrice:1:3";"250 ML:1;0.500:2;0:3";http://2261bca0.ngrok.com/baqala/Beverages/Energy Drinks/400x400/IMG_1074.png
260;POCARI SWEAT PET BOTTLE ;8997035600300;   01OS0007;Energy Drinks;"measure:1:1;actualPrice:1:2;discountPrice:1:3";"500 ML:1;0.450:2;0:3";http://2261bca0.ngrok.com/baqala/Beverages/Energy Drinks/400x400/IMG_4062.png
261;POCARI  SWEAT ;8997035600133;   ENE150;Energy Drinks;"measure:1:1;actualPrice:1:2;discountPrice:1:3";"330 ML:1;0.275:2;0:3";http://2261bca0.ngrok.com/baqala/Beverages/Energy Drinks/400x400/IMG_1062.png
262;POWER HORSE ENERGY DRINK;9008442000405;86;Energy Drinks;"measure:1:1;actualPrice:1:2;discountPrice:1:3";"355 ML:1;0.600:2;0:3";http://2261bca0.ngrok.com/baqala/Beverages/Energy Drinks/400x400/IMG_1049.png
263;POWER HORSE ENERGY DRINK;9001372251329;10035;Energy Drinks;"measure:1:1;actualPrice:1:2;discountPrice:1:3";"250ML:1;0.550:2;0:3";http://2261bca0.ngrok.com/baqala/Beverages/Energy Drinks/400x400/IMG_1129.png
264;POWERHORSE  ENERGY DRINK COLA ;9008442000375;10042;Energy Drinks;"measure:1:1;actualPrice:1:2;discountPrice:1:3";"355ML:1;.0.600:2;0:3";http://2261bca0.ngrok.com/baqala/Beverages/Energy Drinks/400x400/IMG_1111.png
265;POWERHORSE ENERGY DRINK CAN ;9008442000252;10047;Energy Drinks;"measure:1:1;actualPrice:1:2;discountPrice:1:3";"500 ML:1;0.800:2;0:3";
266;REDBULL SUGARFREE 4 PACK;90162800;RD002;Energy Drinks;"measure:1:1;actualPrice:1:2;discountPrice:1:3";"250 ML:1;2.400:2;0:3";http://2261bca0.ngrok.com/baqala/Beverages/Energy Drinks/400x400/IMG_0862.png
266;REDBULL  SUGAR FREE;90162800;   CRB00100;Energy Drinks;"measure:1:1;actualPrice:1:2;discountPrice:1:3";"250 ML:1;0.600:2;0:3";http://2261bca0.ngrok.com/baqala/Beverages/Energy Drinks/400x400/IMG_1053.png
268;REDBULL 4 PACK ;90162602;RD001;Energy Drinks;"measure:1:1;actualPrice:1:2;discountPrice:1:3";"250 ML:1;2.400:2;0:3";http://2261bca0.ngrok.com/baqala/Beverages/Energy Drinks/400x400/IMG_0860.png
268;REDBULL;90162602;   CRB00200;Energy Drinks;"measure:1:1;actualPrice:1:2;discountPrice:1:3";"250 ML:1;0.600:2;0:3";http://2261bca0.ngrok.com/baqala/Beverages/Energy Drinks/400x400/IMG_1081.png
303;ARWA WATER ;54493704;82641500;Mineral water;"measure:1:1;actualPrice:1:2;discountPrice:1:3";"500 ML:1;0.500:2;0:3";http://2261bca0.ngrok.com/baqala/Beverages/Mineral water/400x400/IMG_0514.png
304;ARWA WATER 12 PACK;5449000083982;82641500;Mineral water;"measure:1:1;actualPrice:1:2;discountPrice:1:3";"500 ML:1;1.000:2;0:3";
305;ARWA WATER 12 PACK;5449000168436;82601500;Mineral water;"measure:1:1;actualPrice:1:2;discountPrice:1:3";"330 ML:1;0.900:2;0:3";http://2261bca0.ngrok.com/baqala/Beverages/Mineral water/400x400/IMG_0627.png
306;ARWA WATER;5449000084071;82721200;Mineral water;"measure:1:1;actualPrice:1:2;discountPrice:1:3";"1.5 L:1;0.200:2;0:3";http://2261bca0.ngrok.com/baqala/Beverages/Mineral water/400x400/IMG_0563.png
307;ARWA WATER 6 PACK;5449000083999;82721200;Mineral water;"measure:1:1;actualPrice:1:2;discountPrice:1:3";"1.5L:1;1.000:2;0:3";http://2261bca0.ngrok.com/baqala/Beverages/Mineral water/400x400/IMG_0599.png
308;EVIAN MINERAL WATER ;3068320055008;   006-143046;Mineral water;"measure:1:1;actualPrice:1:2;discountPrice:1:3";"500 ML:1;0.500:2;0:3";http://2261bca0.ngrok.com/baqala/Beverages/Mineral water/400x400/IMG_0534.png
309;EVIAN MINERAL WATER 24 PACK;3068320113159;   006-143046;Mineral water;"measure:1:1;actualPrice:1:2;discountPrice:1:3";"500 ML:1;12.000:2;0:3";
310;EVIAN MINERAL WATER ;3068320109657;   006-143045;Mineral water;"measure:1:1;actualPrice:1:2;discountPrice:1:3";"330 ML:1;0.425:2;0:3";http://2261bca0.ngrok.com/baqala/Beverages/Mineral water/400x400/IMG_0535.png
311;EVIAN MINERAL WATER L 24 PACK;3068320109664;   006-143045;Mineral water;"measure:1:1;actualPrice:1:2;discountPrice:1:3";"330 ML:1;10.200:2;0:3";http://2261bca0.ngrok.com/baqala/Beverages/Mineral water/400x400/IMG_0659.png
312;EVIAN MINERAL WATER;3068320014067;   006-50921;Mineral water;"measure:1:1;actualPrice:1:2;discountPrice:1:3";"750 ML:1;0.675:2;0:3";http://2261bca0.ngrok.com/baqala/Beverages/Mineral water/400x400/IMG_0550.png
313;EVIAN MINERAL WATER 12 PACK;3068320014074;;Mineral water;"measure:1:1;actualPrice:1:2;discountPrice:1:3";"750 ML:1;8.100:2;0:3";http://2261bca0.ngrok.com/baqala/Beverages/Mineral water/400x400/IMG_0618.png
314;EVIAN SPORTS WATER ;3068320111803;853.005;Mineral water;"measure:1:1;actualPrice:1:2;discountPrice:1:3";"330ML:1;0.500:2;0:3";http://2261bca0.ngrok.com/baqala/Beverages/Mineral water/400x400/IMG_0539.png
315;EVIAN SPORTS WATER  24 PACK;3068320111810;;Mineral water;"measure:1:1;actualPrice:1:2;discountPrice:1:3";"330 ML:1;12.000:2;0:3";http://2261bca0.ngrok.com/baqala/Beverages/Mineral water/400x400/IMG_0604.png
316;EVIAN WATER 6 PACK;3068320040127;   006-143044B;Mineral water;"measure:1:1;actualPrice:1:2;discountPrice:1:3";"1.5 L:1;5.100:2;0:3";http://2261bca0.ngrok.com/baqala/Beverages/Mineral water/400x400/IMG_0612.png
317;EVIAN WATER;3068320085005;   006-143044;Mineral water;"measure:1:1;actualPrice:1:2;discountPrice:1:3";"1.5L:1;0.850:2;0:3";http://2261bca0.ngrok.com/baqala/Beverages/Mineral water/400x400/IMG_0569.png
319;HIGHLAND MINERAL WATER;5010459005216;11970017;Mineral water;"measure:1:1;actualPrice:1:2;discountPrice:1:3";"500 ML:1;0.250:2;0:3";http://2261bca0.ngrok.com/baqala/Beverages/Mineral water/400x400/IMG_0593.png
320;HIGHLAND MINERAL WATER 12 PACK;5010459241218;11970017;Mineral water;"measure:1:1;actualPrice:1:2;discountPrice:1:3";"500 ML:1;3.000:2;0:3";http://2261bca0.ngrok.com/baqala/Beverages/Mineral water/400x400/IMG_0633.png
321;HIGHLAND SPRING MINERAL WATER;5010459005025;11970019;Mineral water;"measure:1:1;actualPrice:1:2;discountPrice:1:3";"1.5L:1;0.500:2;0:3";http://2261bca0.ngrok.com/baqala/Beverages/Mineral water/400x400/IMG_0573.png
322;HIGHLAND SPRING MINERAL WATER 12 PACK;5010459121213;11970019;Mineral water;"measure:1:1;actualPrice:1:2;discountPrice:1:3";"1.5L:1;6.000:2;0:3";http://2261bca0.ngrok.com/baqala/Beverages/Mineral water/400x400/IMG_0635.png
332;PERRIER LEMON ;3179730011888;   SPR05;Mineral water;"measure:1:1;actualPrice:1:2;discountPrice:1:3";"200 ML:1;0.450:2;0:3";http://2261bca0.ngrok.com/baqala/Beverages/Mineral water/400x400/IMG_0493.png
333;PERRIER LEMON 6 PACK;3179730010935;   SPR05;Mineral water;"measure:1:1;actualPrice:1:2;discountPrice:1:3";"200 ML:1;2.700:2;0:3";http://2261bca0.ngrok.com/baqala/Beverages/Mineral water/400x400/IMG_0596.png
334;PERRIER LEMON 4 PACK;3179730011871;   SPR12;Mineral water;"measure:1:1;actualPrice:1:2;discountPrice:1:3";"330 ML:1;1.900:2;0:3";http://2261bca0.ngrok.com/baqala/Beverages/Mineral water/400x400/IMG_0576.png
334;PERRIER LEMON ;3179730011871;   SPR12;Mineral water;"measure:1:1;actualPrice:1:2;discountPrice:1:3";"330 ML:1;0.475:2;0:3";http://2261bca0.ngrok.com/baqala/Beverages/Mineral water/400x400/IMG_0648.png
336;PERRIER LIME 6 PACK;3179730010942;   SPR14;Mineral water;"measure:1:1;actualPrice:1:2;discountPrice:1:3";"200 ML:1;2.700:2;0:3";http://2261bca0.ngrok.com/baqala/Beverages/Mineral water/400x400/IMG_0580.png
337;PERRIER LIME ;3179730011895;   SPR04;Mineral water;"measure:1:1;actualPrice:1:2;discountPrice:1:3";"330 ML:1;0.475:2;0:3";http://2261bca0.ngrok.com/baqala/Beverages/Mineral water/400x400/IMG_0490.png
338;PERRIER LIME 4 PACK;3179730010737;   SPR04;Mineral water;"measure:1:1;actualPrice:1:2;discountPrice:1:3";"330 ML:1;1.900:2;0:3";http://2261bca0.ngrok.com/baqala/Beverages/Mineral water/400x400/IMG_0513.png
339;PERRIER LIME;3179730011901;   SPR14;Mineral water;"measure:1:1;actualPrice:1:2;discountPrice:1:3";"200 ML:1;0.450:2;0:3";http://2261bca0.ngrok.com/baqala/Beverages/Mineral water/400x400/IMG_0498.png
340;PERRIER REGULAR;3179730010027;   SPR01;Mineral water;"measure:1:1;actualPrice:1:2;discountPrice:1:3";"200 ML:1;0.450:2;0:3";http://2261bca0.ngrok.com/baqala/Beverages/Mineral water/400x400/IMG_0490.png
342;PERRIER REGULAR;3179730011864;   SPR01;Mineral water;"measure:1:1;actualPrice:1:2;discountPrice:1:3";"330 ML:1;0.475:2;0:3";http://2261bca0.ngrok.com/baqala/Beverages/Mineral water/400x400/IMG_0497.png
344;PERRIER REGULAR;3179730013134;   SPR03;Mineral water;"measure:1:1;actualPrice:1:2;discountPrice:1:3";"750 ML:1;0.650:2;0:3";http://2261bca0.ngrok.com/baqala/Beverages/Mineral water/400x400/IMG_0530.png
345;PERRIER REGULAR 12 PACK;13179730011151;   SPR03;Mineral water;"measure:1:1;actualPrice:1:2;discountPrice:1:3";"750 ML:1;7.800:2;0:3";
346;V0SS STILL ;682430611737;   01W01;Mineral water;"measure:1:1;actualPrice:1:2;discountPrice:1:3";"375 ML:1;1.000:2;0:3";http://2261bca0.ngrok.com/baqala/Beverages/Mineral water/400x400/IMG_0559.png
355;VOSS STILL 80 CL;682430611744;   01W03;Mineral water;"measure:1:1;actualPrice:1:2;discountPrice:1:3";"800 ML:1;1.950:2;0:3";http://2261bca0.ngrok.com/baqala/Beverages/Mineral water/400x400/IMG_0522.png
347;VOLVIC ;3057640202223;   1620-00003;Mineral water;"measure:1:1;actualPrice:1:2;discountPrice:1:3";"330 ML:1;0.350:2;0:3";http://2261bca0.ngrok.com/baqala/Beverages/Mineral water/400x400/IMG_0592.png
348;VOLVIC 24 PACK;3057640202308;   1620-00003;Mineral water;"measure:1:1;actualPrice:1:2;discountPrice:1:3";"330 ML:1;8.400:2;0:3";http://2261bca0.ngrok.com/baqala/Beverages/Mineral water/400x400/IMG_0625.png
349;VOLVIC MINERAL WATER;3057640100178;   1620-00001;Mineral water;"measure:1:1;actualPrice:1:2;discountPrice:1:3";"1.5 L:1;0.825:2;0:3";http://2261bca0.ngrok.com/baqala/Beverages/Mineral water/400x400/IMG_0560.png
350;VOLVIC MINERAL WATER 12 PACK;3057640112058;   1620-00001;Mineral water;"measure:1:1;actualPrice:1:2;discountPrice:1:3";"1.5 L,9.900:2;0:3";
351;VOLVIC MINERAL WATER;3057640136993;   1620-00005;Mineral water;"measure:1:1;actualPrice:1:2;discountPrice:1:3";"1 L:1;0.800:2;0:3";http://2261bca0.ngrok.com/baqala/Beverages/Mineral water/400x400/IMG_0525.png
352;VOLVIC MINERAL WATER 12 PACK;3057640100833;   VOL11;Mineral water;"measure:1:1;actualPrice:1:2;discountPrice:1:3";"1 L:1;9.600:2;0:3";
353;VOLVIC MINERALWATER ;3057640100673;   1620-00002;Mineral water;"measure:1:1;actualPrice:1:2;discountPrice:1:3";"500 ML:1;0.400:2;0:3";http://2261bca0.ngrok.com/baqala/Beverages/Mineral water/400x400/IMG_0529.png
354;VOLVIC MINERALWATER 6 PACK;3057640117268;   1620-00002;Mineral water;"measure:1:1;actualPrice:1:2;discountPrice:1:3";"500 ML:1;9.600:2;0:3";http://2261bca0.ngrok.com/baqala/Beverages/Mineral water/400x400/IMG_0609.png
361;ALMARAI MANGO;6281007201759;7301;Juices;"measure:1:1;actualPrice:1:2;discountPrice:1:3";"300 ML:1; 0.200:2;0:3";
365;ALMARAI MANGO;6281007200882;7293;Juices;"measure:1:1;actualPrice:1:2;discountPrice:1:3";"1.750 L:1; 1.000:2;0:3";http://2261bca0.ngrok.com/baqala/Beverages/Fruits Drinks & Juices/400x400/IMG_1397.png
368;ALMARAI ORANGE;6281007029629;7297;Juices;"measure:1:1;actualPrice:1:2;discountPrice:1:3";"300 ML:1; 0.250:2;0:3";
369;ALMARAI ORANGE;6281007026192;26192;Juices;"measure:1:1;actualPrice:1:2;discountPrice:1:3";"200 ML:1; 0.125:2;0:3";
381;CAESAR PEACH;6281060042610;11409;Juices;"measure:1:1;actualPrice:1:2;discountPrice:1:3";"250 ML:1; 0.300 :2;0:3";http://2261bca0.ngrok.com/baqala/Beverages/Fruits Drinks & Juices/400x400/IMG_1529.png
382;CAESAR PEACH;6281060045215;11109;Juices;"measure:1:1;actualPrice:1:2;discountPrice:1:3";"1 L:1; 0.675:2;0:3";http://2261bca0.ngrok.com/baqala/Beverages/Fruits Drinks & Juices/400x400/IMG_1666.png
388;CAESAR RED GRAPE;6281060043013;11406;Juices;"measure:1:1;actualPrice:1:2;discountPrice:1:3";"250 ML:1; 0.300 :2;0:3";http://2261bca0.ngrok.com/baqala/Beverages/Fruits Drinks & Juices/400x400/IMG_2012.png
389;CAESAR RED GRAPE;6281060101898;11106;Juices;"measure:1:1;actualPrice:1:2;discountPrice:1:3";"1 L:1; 0.675:2;0:3";http://2261bca0.ngrok.com/baqala/Beverages/Fruits Drinks & Juices/400x400/IMG_1681.png
396;KDD COCKTAIL DRINK;6271002211716;13580047;Juices;"measure:1:1;actualPrice:1:2;discountPrice:1:3";"250 ML:1; 0.150:2;0:3";http://2261bca0.ngrok.com/baqala/Beverages/Fruits Drinks & Juices/400x400/IMG_1693.png
397;KDD COCKTAIL DRINK;6271002203612;13580044;Juices;"measure:1:1;actualPrice:1:2;discountPrice:1:3";"1 L:1; 0.600:2;0:3";http://2261bca0.ngrok.com/baqala/Beverages/Fruits Drinks & Juices/400x400/IMG_1649.png
399;KDD GRAPEFRUIT ;6271002210917;13580040;Juices;"measure:1:1;actualPrice:1:2;discountPrice:1:3";"250 ML:1; 0.150:2;0:3";http://2261bca0.ngrok.com/baqala/Beverages/Fruits Drinks & Juices/400x400/IMG_1713.png
400;KDD GRAPEFRUIT ;6271002203216;13580043;Juices;"measure:1:1;actualPrice:1:2;discountPrice:1:3";"1 L:1; 0.850:2;0:3";
401;KDD GUAVA NECTAR;6271002211310;13580052;Juices;"measure:1:1;actualPrice:1:2;discountPrice:1:3";"250 ML:1; 0.150:2;0:3";http://2261bca0.ngrok.com/baqala/Beverages/Fruits Drinks & Juices/400x400/IMG_1683.png
402;KDD GUAVA NECTAR;6271002203414;13580136;Juices;"measure:1:1;actualPrice:1:2;discountPrice:1:3";"1 L:1; 0.575:2;0:3";http://2261bca0.ngrok.com/baqala/Beverages/Fruits Drinks & Juices/400x400/IMG_1652.png
406;KDD ORANGE ;6271002210115;13580036;Juices;"measure:1:1;actualPrice:1:2;discountPrice:1:3";"250 ML:1; 0.150:2;0:3";http://2261bca0.ngrok.com/baqala/Beverages/Fruits Drinks & Juices/400x400/IMG_1998.png
407;KDD ORANGE ;6271002203018;13580137;Juices;"measure:1:1;actualPrice:1:2;discountPrice:1:3";"1 L:1; 0.600:2;0:3";http://2261bca0.ngrok.com/baqala/Beverages/Fruits Drinks & Juices/400x400/IMG_2007.png
413;KDD TOMATO ;6271002211112;13580050;Juices;"measure:1:1;actualPrice:1:2;discountPrice:1:3";"250 ML:1; 0.150:2;0:3";http://2261bca0.ngrok.com/baqala/Beverages/Fruits Drinks & Juices/400x400/IMG_1721.png
414;KDD TOMATO ;6271002204114;13580141;Juices;"measure:1:1;actualPrice:1:2;discountPrice:1:3";"1 L:1; 0.525:2;0:3";http://2261bca0.ngrok.com/baqala/Beverages/Fruits Drinks & Juices/400x400/IMG_1715.png
419;NADA KIWI & LIME  ;6281018152262;418;Juices;"measure:1:1;actualPrice:1:2;discountPrice:1:3";"1 L:1; 0.450:2;0:3";http://2261bca0.ngrok.com/baqala/Beverages/Fruits Drinks & Juices/400x400/IMG_1734.png
420;NADA KIWI & LIME ;6281018152118;858;Juices;"measure:1:1;actualPrice:1:2;discountPrice:1:3";"1.750 L:1; 0.800:2;0:3";http://2261bca0.ngrok.com/baqala/Beverages/Fruits Drinks & Juices/400x400/IMG_1377.png
423;NADA KIWI & LIME ;6281018152484;455;Juices;"measure:1:1;actualPrice:1:2;discountPrice:1:3";"200 ML:1; 0.100:2;0:3";http://2261bca0.ngrok.com/baqala/Beverages/Fruits Drinks & Juices/400x400/IMG_1620.png
424;NADA LEMON ;6281018160052;454;Juices;"measure:1:1;actualPrice:1:2;discountPrice:1:3";"200 ML:1; 0.100:2;0:3";
425;NADA LEMON ;6281018180012;854;Juices;"measure:1:1;actualPrice:1:2;discountPrice:1:3";"2 L:1; 0.800:2;0:3";
426;NADA MANGO ;6281018160069;412;Juices;"measure:1:1;actualPrice:1:2;discountPrice:1:3";"1 L:1;  0.450:2;0:3";
427;NADA MANGO ;6281018140238;452;Juices;"measure:1:1;actualPrice:1:2;discountPrice:1:3";"200 ML:1; 0.100:2;0:3";http://2261bca0.ngrok.com/baqala/Beverages/Fruits Drinks & Juices/400x400/IMG_1610.png
428;NADA MANGO ;6281018160014;852;Juices;"measure:1:1;actualPrice:1:2;discountPrice:1:3";"1.750 L:1; 0.800:2;0:3";
430;NADA ORANGE  ;6281018150015;851;Juices;"measure:1:1;actualPrice:1:2;discountPrice:1:3";"1.750 L:1; 0.800:2;0:3";"http://2261bca0.ngrok.com/baqala""/Beverages/Fruits Drinks & Juices/400x400/IMG_1350.png"
431;NADA ORANGE ;6281018150060;411;Juices;"measure:1:1;actualPrice:1:2;discountPrice:1:3";"1 L:1; 0.450:2;0:3";http://2261bca0.ngrok.com/baqala/Beverages/Fruits Drinks & Juices/400x400/IMG_1641.png
432;NADA ORANGE ;6281018140139;451;Juices;"measure:1:1;actualPrice:1:2;discountPrice:1:3";"200 ML:1; 0.100:2;0:3";http://2261bca0.ngrok.com/baqala/Beverages/Fruits Drinks & Juices/400x400/IMG_1430.png
434;NADA PINEAPPLE  ;6281018113386;458;Juices;"measure:1:1;actualPrice:1:2;discountPrice:1:3";"200 ML:1; 0.100:2;0:3";http://2261bca0.ngrok.com/baqala/Beverages/Fruits Drinks & Juices/400x400/IMG_1424.png
435;NADA PINEAPPLE ;6281018157267;420;Juices;"measure:1:1;actualPrice:1:2;discountPrice:1:3";"1 L:1; 0.450:2;0:3";http://2261bca0.ngrok.com/baqala/Beverages/Fruits Drinks & Juices/400x400/IMG_1638.png
436;NADA PINEAPPLE;6281018157113;860;Juices;"measure:1:1;actualPrice:1:2;discountPrice:1:3";"1.750 L:1; 0.800:2;0:3";
437;NADA STRAWBERRY ;6281018138983;457;Juices;"measure:1:1;actualPrice:1:2;discountPrice:1:3";"200 ML:1; 0.100:2;0:3";http://2261bca0.ngrok.com/baqala/Beverages/Fruits Drinks & Juices/400x400/IMG_1728.png
438;NADA STRAWBERRY ;6281018190011;856;Juices;"measure:1:1;actualPrice:1:2;discountPrice:1:3";"2 L:1; 0.800:2;0:3";http://2261bca0.ngrok.com/baqala/Beverages/Fruits Drinks & Juices/400x400/IMG_1388.png
439;NADEC APPLE ;6281057002252;950;Juices;"measure:1:1;actualPrice:1:2;discountPrice:1:3";"1.750 L:1; 0.800:2;0:3";http://2261bca0.ngrok.com/baqala/Beverages/Fruits Drinks & Juices/400x400/IMG_1406.png
440;NADEC APPLE ;6281057300051;834;Juices;"measure:1:1;actualPrice:1:2;discountPrice:1:3";"200 ML:1; 0.100:2;0:3";http://2261bca0.ngrok.com/baqala/Beverages/Fruits Drinks & Juices/400x400/IMG_1629.png
441;NADEC KIWI LIME &  MINT ;6281057002832;   863NC;Juices;"measure:1:1;actualPrice:1:2;discountPrice:1:3";"1.750 L:1; 0.800:2;0:3";
442;NADEC KIWI LIME & MINT ;6281057002863;908;Juices;"measure:1:1;actualPrice:1:2;discountPrice:1:3";"200 ML:1; 0.100:2;0:3";http://2261bca0.ngrok.com/baqala/Beverages/Fruits Drinks & Juices/400x400/IMG_1617.png
443;NADEC LEMON MINT ;6281057111107;992;Juices;"measure:1:1;actualPrice:1:2;discountPrice:1:3";"1.750L:1; 0.800:2;0:3";http://2261bca0.ngrok.com/baqala/Beverages/Fruits Drinks & Juices/400x400/IMG_1344.png
444;NADEC LEMON MINT ;6281057111138;993;Juices;"measure:1:1;actualPrice:1:2;discountPrice:1:3";"200 ML:1; 0.100:2;0:3";http://2261bca0.ngrok.com/baqala/Beverages/Fruits Drinks & Juices/400x400/IMG_1631.png
445;NADEC MANGO ;6281057200047;823;Juices;"measure:1:1;actualPrice:1:2;discountPrice:1:3";"200 ML:1; 0.100:2;0:3";http://2261bca0.ngrok.com/baqala/Beverages/Fruits Drinks & Juices/400x400/IMG_1622.png
446;NADEC MANGO ;6281057002245;949;Juices;"measure:1:1;actualPrice:1:2;discountPrice:1:3";"1.750 L:1; 0.800:2;0:3";http://2261bca0.ngrok.com/baqala/Beverages/Fruits Drinks & Juices/400x400/IMG_1391.png
447;NADEC MIXED FRUIT;6281057002290;954;Juices;"measure:1:1;actualPrice:1:2;discountPrice:1:3";"1.750 L:1; 0.800:2;0:3";http://2261bca0.ngrok.com/baqala/Beverages/Fruits Drinks & Juices/400x400/IMG_1338.png
448;NADEC MIXED FRUIT ;6281057400140;   873NC;Juices;"measure:1:1;actualPrice:1:2;discountPrice:1:3";"200 ML:1; 0.100:2;0:3";http://2261bca0.ngrok.com/baqala/Beverages/Fruits Drinks & Juices/400x400/IMG_1419.png
455;RANI FLOAT ORANGE ;6281034016012;1601;Juices;"measure:1:1;actualPrice:1:2;discountPrice:1:3";"180 ML:1; 0.100:2;0:3";http://2261bca0.ngrok.com/baqala/Beverages/Fruits Drinks & Juices/400x400/IMG_1589.png
461;RANI ORANGE FLOAT;6281034016029;1602;Juices;"measure:1:1;actualPrice:1:2;discountPrice:1:3";"240 ML:1; 0.150:2;0:3";http://2261bca0.ngrok.com/baqala/Beverages/Fruits Drinks & Juices/400x400/IMG_1583.png
489;COFEEMATE ORIGINAL;8850124020000;8100197;Tea & Coffee;"measure:1:1;actualPrice:1:2;discountPrice:1:3";"400 G:1; 1.550:2;0:3";http://2261bca0.ngrok.com/baqala/Beverages/Tea & Coffee/400x400/IMG_0258.png
490;COFEEMATE ORIGINAL;8850124019967;8100198;Tea & Coffee;"measure:1:1;actualPrice:1:2;discountPrice:1:3";"170 G:1; 0.800:2;0:3";
501;LIPTON TEA BAGS;6281006701199;21032529;Tea & Coffee;"measure:1:1;actualPrice:1:2;discountPrice:1:3";"50 BAGS:1; 1.175:2;0:3";http://2261bca0.ngrok.com/baqala/Beverages/Tea & Coffee/400x400/IMG_0285.png
502;LIPTON TEA BAGS;6281006701236;21032530;Tea & Coffee;"measure:1:1;actualPrice:1:2;discountPrice:1:3";"25 BAGS:1; 0.600:2;0:3";http://2261bca0.ngrok.com/baqala/Beverages/Tea & Coffee/400x400/IMG_0287.png
521;ACTIVA LABAN;6281022118070;1807;Dairy Drinks;"measure:1:1;actualPrice:1:2;discountPrice:1:3";"375 ML:1; 0.275:2;0:3";http://2261bca0.ngrok.com/baqala/Beverages/Dairy Drinks/400x400/IMG_1353.png
522;ACTIVA LABAN;6281022118087;1808;Dairy Drinks;"measure:1:1;actualPrice:1:2;discountPrice:1:3";"850 ML:1; 0.500:2;0:3";http://2261bca0.ngrok.com/baqala/Beverages/Dairy Drinks/400x400/IMG_1393.png
523;ACTIVIA LABAN;6281022118421;1842;Dairy Drinks;"measure:1:1;actualPrice:1:2;discountPrice:1:3";"180 ML:1; 0.100:2;0:3";http://2261bca0.ngrok.com/baqala/Beverages/Dairy Drinks/400x400/IMG_1363.png
531;AL MARAI FRESH MILK;62810531;2021;Dairy Drinks;"measure:1:1;actualPrice:1:2;discountPrice:1:3";"500 ML:1; 0.275:2;0:3";http://2261bca0.ngrok.com/baqala/Beverages/Dairy Drinks/400x400/IMG_1454.png
525;AL MARAI LABAN;6281007110808;1031;Dairy Drinks;"measure:1:1;actualPrice:1:2;discountPrice:1:3";"1 L:1; 0.500:2;0:3";http://2261bca0.ngrok.com/baqala/Beverages/Dairy Drinks/400x400/IMG_1517.png
526;AL MARAI LABAN;6281007110402;1058;Dairy Drinks;"measure:1:1;actualPrice:1:2;discountPrice:1:3";"2 L:1; 0.950:2;0:3";http://2261bca0.ngrok.com/baqala/Beverages/Dairy Drinks/400x400/IMG_1386.png
528;AL MARAI MANGO MILK;6281007035309;1007032509;Dairy Drinks;"measure:1:1;actualPrice:1:2;discountPrice:1:3";"180 ML:1; 0.200:2;0:3";http://2261bca0.ngrok.com/baqala/Beverages/Dairy Drinks/400x400/IMG_1374.png
529;AL MARAI MANGO MILK ;6281007036092;1007036092;Dairy Drinks;"measure:1:1;actualPrice:1:2;discountPrice:1:3";"360 ML:1; 0.350:2;0:3";http://2261bca0.ngrok.com/baqala/Beverages/Dairy Drinks/400x400/IMG_1485.png
530;AL MARAI MILK;62810593;2023;Dairy Drinks;"measure:1:1;actualPrice:1:2;discountPrice:1:3";"500 ML:1; 0.275:2;0:3";http://2261bca0.ngrok.com/baqala/Beverages/Dairy Drinks/400x400/IMG_1451.png
532;AL MARAI MILK;6281007120906;2022;Dairy Drinks;"measure:1:1;actualPrice:1:2;discountPrice:1:3";"1 L:1; 0.500:2;0:3";http://2261bca0.ngrok.com/baqala/Beverages/Dairy Drinks/400x400/IMG_1399.png
533;AL MARAI MILK;6281007120500;2039;Dairy Drinks;"measure:1:1;actualPrice:1:2;discountPrice:1:3";"2 L:1; 0.950:2;0:3";http://2261bca0.ngrok.com/baqala/Beverages/Dairy Drinks/400x400/IMG_1513.png
537;ALMARAI STRAWBERRY MILK ;6281007032544;1007032544;Dairy Drinks;"measure:1:1;actualPrice:1:2;discountPrice:1:3";"360 ML:1; 0.350:2;0:3";http://2261bca0.ngrok.com/baqala/Beverages/Dairy Drinks/400x400/IMG_1350.png
547;ALMARAI STRAWBERRY MILK;6281007032537;1007032537;Dairy Drinks;"measure:1:1;actualPrice:1:2;discountPrice:1:3";"180 ML:1; 0.200:2;0:3";http://2261bca0.ngrok.com/baqala/Beverages/Dairy Drinks/400x400/IMG_1462.png
552;NADA CHOCALATE MILK ;6281018142683;   NCJ;Dairy Drinks;"measure:1:1;actualPrice:1:2;discountPrice:1:3";"180 ML:1; 0.150:2;0:3";http://2261bca0.ngrok.com/baqala/Beverages/Dairy Drinks/400x400/IMG_1452.png
553;NADA CHOCOLATE MILK ;6281018118640;   NCM;Dairy Drinks;"measure:1:1;actualPrice:1:2;discountPrice:1:3";"360 ML:1; 0.300:2;0:3";
556;NADA LABAN FULL FAT;6281018120186;232;Dairy Drinks;"measure:1:1;actualPrice:1:2;discountPrice:1:3";"200 ML:1; 0.100:2;0:3";http://2261bca0.ngrok.com/baqala/Beverages/Dairy Drinks/400x400/IMG_1447.png
558;NADA LABAN FULL FAT;6281018120865;   247A;Dairy Drinks;"measure:1:1;actualPrice:1:2;discountPrice:1:3";"800 ML:1; 0.400:2;0:3";http://2261bca0.ngrok.com/baqala/Beverages/Dairy Drinks/400x400/IMG_1437.png
559;NADA MANGO MILK ;6281018142089;   NDMANGO;Dairy Drinks;"measure:1:1;actualPrice:1:2;discountPrice:1:3";"180 ML:1; 0.150:2;0:3";http://2261bca0.ngrok.com/baqala/Beverages/Dairy Drinks/400x400/IMG_1464.png
560;NADA MANGO MILK ;6281018118046;   NMM;Dairy Drinks;"measure:1:1;actualPrice:1:2;discountPrice:1:3";"360 ML:1; 0.300:2;0:3";
562;NADA MILK LOW FAT;6281018111665;179;Dairy Drinks;"measure:1:1;actualPrice:1:2;discountPrice:1:3";"800 ML:1; 0.400:2;0:3";http://2261bca0.ngrok.com/baqala/Beverages/Dairy Drinks/400x400/IMG_1433.png
563;NADA MILK LOW FAT;6281018110811;177;Dairy Drinks;"measure:1:1;actualPrice:1:2;discountPrice:1:3";"1.750 L:1; 0.950:2;0:3";http://2261bca0.ngrok.com/baqala/Beverages/Dairy Drinks/400x400/IMG_1405.png
565;NADA MILK LOW FAT;6281018110712;178;Dairy Drinks;"measure:1:1;actualPrice:1:2;discountPrice:1:3";"1.750 L:1; 0.950:2;0:3";http://2261bca0.ngrok.com/baqala/Beverages/Dairy Drinks/400x400/IMG_1411.png
566;NADA MILK LOW FAT;6281018110286;127;Dairy Drinks;"measure:1:1;actualPrice:1:2;discountPrice:1:3";"200 ML:1; 0.100:2;0:3";http://2261bca0.ngrok.com/baqala/Beverages/Dairy Drinks/400x400/IMG_1457.png
561;NADA MILK FULL FAT;6281018110347;10347;Dairy Drinks;"measure:1:1;actualPrice:1:2;discountPrice:1:3";"360 ML:1; 0.250:2;0:3";http://2261bca0.ngrok.com/baqala/Beverages/Dairy Drinks/400x400/IMG_1441.png
564;NADA MILK FULL FAT;6281018110064;180;Dairy Drinks;"measure:1:1;actualPrice:1:2;discountPrice:1:3";"800 ML:1; 0.400:2;0:3";http://2261bca0.ngrok.com/baqala/Beverages/Dairy Drinks/400x400/IMG_1436.png
568;NADA STRAWBERRY MILK;6281018118442;   NSM;Dairy Drinks;"measure:1:1;actualPrice:1:2;discountPrice:1:3";"360 ML:1; 0.300:2;0:3";
569;NADA STRAWBERRY MILK;6281018142485;166;Dairy Drinks;"measure:1:1;actualPrice:1:2;discountPrice:1:3";"180 ML:1; 0.150:2;0:3";http://2261bca0.ngrok.com/baqala/Beverages/Dairy Drinks/400x400/IMG_1471.png
570;NADEC  FRESH LABAN FULL FAT;6281057002603;71;Dairy Drinks;"measure:1:1;actualPrice:1:2;discountPrice:1:3";"360 ML:1; 0.200:2;0:3";http://2261bca0.ngrok.com/baqala/Beverages/Dairy Drinks/400x400/IMG_1447.png
576;NADEC FRESH LABAN FULL FAT;6281057020065;75;Dairy Drinks;"measure:1:1;actualPrice:1:2;discountPrice:1:3";"200 ML:1; 0.100:2;0:3";http://2261bca0.ngrok.com/baqala/Beverages/Dairy Drinks/400x400/IMG_1461.png
571;NADEC  FRESH MANGO MILK  ;6281057002726;298;Dairy Drinks;"measure:1:1;actualPrice:1:2;discountPrice:1:3";"360 ML:1; 0.225:2;0:3";http://2261bca0.ngrok.com/baqala/Beverages/Dairy Drinks/400x400/IMG_1355.png
579;NADEC FRESH MANGO MILK;6281057002474;998;Dairy Drinks;"measure:1:1;actualPrice:1:2;discountPrice:1:3";"200 ML:1; 0.100:2;0:3";http://2261bca0.ngrok.com/baqala/Beverages/Dairy Drinks/400x400/IMG_1460.png
572;NADEC  FRESH MILK FULL FAT;6281057000067;246;Dairy Drinks;"measure:1:1;actualPrice:1:2;discountPrice:1:3";"200 ML:1; 0.100:2;0:3";http://2261bca0.ngrok.com/baqala/Beverages/Dairy Drinks/400x400/IMG_1469.png
580;NADEC FRESH MILK FULL FAT;6281057002665;217;Dairy Drinks;"measure:1:1;actualPrice:1:2;discountPrice:1:3";"360 ML:1; 0.200:2;0:3";http://2261bca0.ngrok.com/baqala/Beverages/Dairy Drinks/400x400/IMG_1347.png
581;NADEC FRESH MILK FULL FAT;6281057002641;215;Dairy Drinks;"measure:1:1;actualPrice:1:2;discountPrice:1:3";"1.750 ML:1; 0.800:2;0:3";
574;NADEC  FRESH STRAWBERRY MILK ;6281057000210;282;Dairy Drinks;"measure:1:1;actualPrice:1:2;discountPrice:1:3";"200 ML:1; 0.100:2;0:3";http://2261bca0.ngrok.com/baqala/Beverages/Dairy Drinks/400x400/IMG_1491.png
575;NADEC  FRESH STRAWBERRY MILK  ;6281057002702;296;Dairy Drinks;"measure:1:1;actualPrice:1:2;discountPrice:1:3";"360 ML:1; 0.225:2;0:3";http://2261bca0.ngrok.com/baqala/Beverages/Dairy Drinks/400x400/IMG_1497.png
578;NADEC FRESH LABAN LOW FAT;6281057002610;101;Dairy Drinks;"measure:1:1;actualPrice:1:2;discountPrice:1:3";"1.750 L:1; 0.800:2;0:3";
577;NADEC FRESH LABAN LOW FAT;6281057021062;116;Dairy Drinks;"measure:1:1;actualPrice:1:2;discountPrice:1:3";"200 ML:1; 0.100:2;0:3";
587;CHEETOS CRUNCHY ;6281036241306;5140032;Chips;"measure:1:1;actualPrice:1:2;discountPrice:1:3";"35 G:1; 0.100:2;0:3";
588;CHEETOS CRUNCHY ;6281036247308;514.0076;Chips;"measure:1:1;actualPrice:1:2;discountPrice:1:3";"185 G:1; 0.650:2;0:3";http://2261bca0.ngrok.com/baqala/Snacks & chocolates/Chips/400x400/IMG_2586.png
589;CHEETOS FLAMING HOT ;6281036241405;5140044;Chips;"measure:1:1;actualPrice:1:2;discountPrice:1:3";"35 G:1; 0.100:2;0:3";http://2261bca0.ngrok.com/baqala/Snacks & chocolates/Chips/400x400/IMG_2675.png
590;CHEETOS FLAMING HOT ;6281036247407;514.0043;Chips;"measure:1:1;actualPrice:1:2;discountPrice:1:3";"210 G:1; 0.65:2;0:3";http://2261bca0.ngrok.com/baqala/Snacks & chocolates/Chips/400x400/IMG_2647.png
595;DORITOS NACHO CHEESE ;6281036564108;7460105;Chips;"measure:1:1;actualPrice:1:2;discountPrice:1:3";"40 G:1; 0.250:2;0:3";http://2261bca0.ngrok.com/baqala/Snacks & chocolates/Chips/400x400/IMG_2652.png
596;DORITOS NACHO CHEESE ;6281036567109;746.0126;Chips;"measure:1:1;actualPrice:1:2;discountPrice:1:3";"180 G:1; 0.650:2;0:3";
601;LAYS CHILI ;6281036108203;1483.0323;Chips;"measure:1:1;actualPrice:1:2;discountPrice:1:3";"185 G:1; 0.650:2;0:3";http://2261bca0.ngrok.com/baqala/Snacks & chocolates/Chips/400x400/IMG_9939.png
602;LAYS CHILLI;6281036114204;14830025;Chips;"measure:1:1;actualPrice:1:2;discountPrice:1:3";"40 G:1; 0.150:2;0:3";http://2261bca0.ngrok.com/baqala/Snacks & chocolates/Chips/400x400/IMG_2593.png
608;LAYS MAX MEXICAN CHILLI ;6281036137104;1483.0284;Chips;"measure:1:1;actualPrice:1:2;discountPrice:1:3";" 210 G:1; 0.750:2;0:3";http://2261bca0.ngrok.com/baqala/Snacks & chocolates/Chips/400x400/IMG_9856.png
609;LAYS MAX MEXICAN CHILLI ;6281036134103;14830202;Chips;"measure:1:1;actualPrice:1:2;discountPrice:1:3";"50 G:1; 0.200:2;0:3";http://2261bca0.ngrok.com/baqala/Snacks & chocolates/Chips/400x400/IMG_2638.png
611;LAYS SALT ;6281036108005;1483.0321;Chips;"measure:1:1;actualPrice:1:2;discountPrice:1:3";"185 G:1; 0.650:2;0:3";http://2261bca0.ngrok.com/baqala/Snacks & chocolates/Chips/400x400/IMG_2603.png
614;LAYS SALT;6281036114006;14830027;Chips;"measure:1:1;actualPrice:1:2;discountPrice:1:3";"40 G:1; 0.150:2;0:3";http://2261bca0.ngrok.com/baqala/Snacks & chocolates/Chips/400x400/IMG_9844.png
612;LAYS SALT & VINEGAR;6281036114303;14830026;Chips;"measure:1:1;actualPrice:1:2;discountPrice:1:3";"40 G:1; 0.150:2;0:3";http://2261bca0.ngrok.com/baqala/Snacks & chocolates/Chips/400x400/IMG_2632.png
613;LAYS SALT & VINEGAR ;6281036108302;1483.0319;Chips;"measure:1:1;actualPrice:1:2;discountPrice:1:3";"170 G:1; 0.650:2;0:3";http://2261bca0.ngrok.com/baqala/Snacks & chocolates/Chips/400x400/IMG_9826.png
623;LORENZ CRUNCHIPS PAPRIKA;4018077675706;   1300-00017;Chips;"measure:1:1;actualPrice:1:2;discountPrice:1:3";"175 G:1; 0.975:2;0:3";http://2261bca0.ngrok.com/baqala/Snacks & chocolates/Chips/400x400/IMG_0057.png
626;LORENZ CRUNCHIPS SALTED;4017100712203;   1300-00008;Chips;"measure:1:1;actualPrice:1:2;discountPrice:1:3";"100 G:1; 0.550:2;0:3";http://2261bca0.ngrok.com/baqala/Snacks & chocolates/Chips/400x400/IMG_0078.png
627;LORENZ CRUNCHIPS SALTED;4018077711169;   1300-00015;Chips;"measure:1:1;actualPrice:1:2;discountPrice:1:3";"175 G:1; 0.975:2;0:3";http://2261bca0.ngrok.com/baqala/Snacks & chocolates/Chips/400x400/IMG_0022.png
631;PRINGLES BBQ ;5053990107278;32601131;Chips;"measure:1:1;actualPrice:1:2;discountPrice:1:3";"40 G:1; 0.325:2;0:3";http://2261bca0.ngrok.com/baqala/Snacks & chocolates/Chips/400x400/IMG_2731.png
632;PRINGLES BBQ ;5053990101528;32601017;Chips;"measure:1:1;actualPrice:1:2;discountPrice:1:3";"165 G:1; 0.900:2;0:3";http://2261bca0.ngrok.com/baqala/Snacks & chocolates/Chips/400x400/IMG_2720.png
633;PRINGLES HOT AND SPICY ;5053990101542;32601022;Chips;"measure:1:1;actualPrice:1:2;discountPrice:1:3";"165 G:1; 0.900:2;0:3";http://2261bca0.ngrok.com/baqala/Snacks & chocolates/Chips/400x400/IMG_3855.png
634;PRINGLES HOT AND SPICY ;5053990107292;32601117;Chips;"measure:1:1;actualPrice:1:2;discountPrice:1:3";"40 G:1; 0.325:2;0:3";http://2261bca0.ngrok.com/baqala/Snacks & chocolates/Chips/400x400/IMG_9770.png
636;PRINGLES ORIGINAL ;5053990101573;32601038;Chips;"measure:1:1;actualPrice:1:2;discountPrice:1:3";"165 G:1; 0.900:2;0:3";http://2261bca0.ngrok.com/baqala/Snacks & chocolates/Chips/400x400/IMG_2729.png
637;PRINGLES ORIGINAL ;5053990107339;32601001;Chips;"measure:1:1;actualPrice:1:2;discountPrice:1:3";"40 G:1; 0.325:2;0:3";
666;CHIPS AHOY;8410000002904;   N02900;Biscuits;"measure:1:1;actualPrice:1:2;discountPrice:1:3";"128 G:1; 0.525:2;0:3";http://2261bca0.ngrok.com/baqala/Snacks & chocolates/Biscuits/400x400/IMG_0156.png
667;CHIPS AHOY;8410000001013;   N80853;Biscuits;"measure:1:1;actualPrice:1:2;discountPrice:1:3";"300 G:1; 1.200:2;0:3";http://2261bca0.ngrok.com/baqala/Snacks & chocolates/Biscuits/400x400/IMG_0122.png
676;MCVITIES DIGESTIVE BISCUITS ORGINAL;50396238;   1380-00008;Biscuits;"measure:1:1;actualPrice:1:2;discountPrice:1:3";"250 G:1; 0.700:2;0:3";http://2261bca0.ngrok.com/baqala/Snacks & chocolates/Biscuits/400x400/IMG_0197.png
677;MCVITIES DIGESTIVE BISCUITS ORGINAL;5000396001730;   1380-00009;Biscuits;"measure:1:1;actualPrice:1:2;discountPrice:1:3";"400 G:1; 0.975:2;0:3";http://2261bca0.ngrok.com/baqala/Snacks & chocolates/Biscuits/400x400/IMG_0143.png
692;RITS CRACKERS  ;7622300509699;   NSA114;Biscuits;"measure:1:1;actualPrice:1:2;discountPrice:1:3";"41 G:1; 0.100:2;0:3";http://2261bca0.ngrok.com/baqala/Snacks & chocolates/Biscuits/400x400/IMG_0307.png
693;RITZ CRACKERS;8410000001211;   NSA211;Biscuits;"measure:1:1;actualPrice:1:2;discountPrice:1:3";"200 G:1; 0.450:2;0:3";http://2261bca0.ngrok.com/baqala/Snacks & chocolates/Biscuits/400x400/IMG_0184.png
699;KELLOGGS CORN FLAKES;4003994111901;   CKL01800;Cereals;"measure:1:1;actualPrice:1:2;discountPrice:1:3";"500 G:1; 1.875:2;0:3";
700;KELLOGGS CORN FLAKES;4003994112427;   CKL00300;Cereals;"measure:1:1;actualPrice:1:2;discountPrice:1:3";"750 G:1; 2.500:2;0:3";
701;KELLOGGS FROSTIES;4003994124154;   CKL02200;Cereals;"measure:1:1;actualPrice:1:2;discountPrice:1:3";"500 GL:1; 2.500:2;0:3";
709;KELLOGGS FROSTIES;5050083605468;   CKL02400;Cereals;"measure:1:1;actualPrice:1:2;discountPrice:1:3";"250 G:1; 1.425:2;0:3";http://2261bca0.ngrok.com/baqala/Snacks & chocolates/Cereals/400x400/IMG_1258.png
730;CADBURY  DAIRY MILK BUBBLY;7622300699710;   006-149631;Chocolates;"measure:1:1;actualPrice:1:2;discountPrice:1:3";"87 G:1; 1.775:2;0:3";http://2261bca0.ngrok.com/baqala/Snacks & chocolates/Chocolates/400x400/D011.png
731;CADBURY DAIRY MILK  BUBBLY ;7622210077660;   DMBB01;Chocolates;"measure:1:1;actualPrice:1:2;discountPrice:1:3";"28 G:1; 0.250:2;0:3";http://2261bca0.ngrok.com/baqala/Snacks & chocolates/Chocolates/400x400/D012.png
726;CADBURY DAIRY MILK FRUIT & NUT;7622210065308;   CF1;Chocolates;"measure:1:1;actualPrice:1:2;discountPrice:1:3";"40G:1; 0.275:2;0:3";http://2261bca0.ngrok.com/baqala/Snacks & chocolates/Chocolates/400x400/D007.png
733;CADBURY DAIRY MILK FRUIT &  NUT ;6221021195009;38017;Chocolates;"measure:1:1;actualPrice:1:2;discountPrice:1:3";"100 G:1; 0.575:2;0:3";http://2261bca0.ngrok.com/baqala/Snacks & chocolates/Chocolates/400x400/IMG_9936.png
734;CADBURY DAIRY MILK HAZELNUT;7622210292704;   DMHN12;Chocolates;"measure:1:1;actualPrice:1:2;discountPrice:1:3";"37 G:1; 0.250:2;0:3";http://2261bca0.ngrok.com/baqala/Snacks & chocolates/Chocolates/400x400/IMG_1293.png
735;CADBURY DAIRY MILK HAZELNUT;6221021198000;38016;Chocolates;"measure:1:1;actualPrice:1:2;discountPrice:1:3";"90 G:1; 0.575:2;0:3";http://2261bca0.ngrok.com/baqala/Snacks & chocolates/Chocolates/400x400/IMG_9930.png
741;FERRERO ROCHER ;8000500032237;9000006;Chocolates;"measure:1:1;actualPrice:1:2;discountPrice:1:3";"375 G:1; 4.100:2;0:3";http://2261bca0.ngrok.com/baqala/Snacks & chocolates/Chocolates/400x400/D024.png
742;FERRERO ROCHER;8000500037874;9000003;Chocolates;"measure:1:1;actualPrice:1:2;discountPrice:1:3";"200 G:1; 2.300:2;0:3";http://2261bca0.ngrok.com/baqala/Snacks & chocolates/Chocolates/400x400/d023.png
743;FERRERO ROCHER;8000500009673;9000013;Chocolates;"measure:1:1;actualPrice:1:2;discountPrice:1:3";"300 G:1; 4.000:2;0:3";http://2261bca0.ngrok.com/baqala/Snacks & chocolates/Chocolates/400x400/D022.png
744;FERRERO ROCHER;80050278;9000008;Chocolates;"measure:1:1;actualPrice:1:2;discountPrice:1:3";"30 G:1; 0.450:2;0:3";http://2261bca0.ngrok.com/baqala/Snacks & chocolates/Chocolates/400x400/d025.png
752;GALAXY JEWELS;6294001814153;   MCH20400;Chocolates;"measure:1:1;actualPrice:1:2;discountPrice:1:3";"200 G:1; 2.050:2;0:3";http://2261bca0.ngrok.com/baqala/Snacks & chocolates/Chocolates/400x400/IMG_4156.png
753;GALAXY JEWELS ;6294001814139;   MCH20500;Chocolates;"measure:1:1;actualPrice:1:2;discountPrice:1:3";"400 G:1; 3.600:2;0:3";http://2261bca0.ngrok.com/baqala/Snacks & chocolates/Chocolates/400x400/IMG_4170.png
754;GALAXY JEWELS ;6294001813668;   MCH20600;Chocolates;"measure:1:1;actualPrice:1:2;discountPrice:1:3";"650 G:1; 5.000:2;0:3";http://2261bca0.ngrok.com/baqala/Snacks & chocolates/Chocolates/400x400/IMG_4158.png
757;GALAXY SMOOTH MILK;6294001821700;   MCH33900;Chocolates;"measure:1:1;actualPrice:1:2;discountPrice:1:3";"90 G:1; 0.650:2;0:3";http://2261bca0.ngrok.com/baqala/Snacks & chocolates/Chocolates/400x400/d040.png
766;KINDER CHOCOLATE  8 BARS;80177616;9000002;Chocolates;"measure:1:1;actualPrice:1:2;discountPrice:1:3";"100 G:1; 0.675:2;0:3";http://2261bca0.ngrok.com/baqala/Snacks & chocolates/Chocolates/400x400/IMG_1694.png
767;KINDER CHOCOLATE 4 BARS ;80177609;9000034;Chocolates;"measure:1:1;actualPrice:1:2;discountPrice:1:3";"50 G:1; 0.350:2;0:3";http://2261bca0.ngrok.com/baqala/Snacks & chocolates/Chocolates/400x400/IMG_1699.png
769;KINDER JOY COLLECTION BOY;80974482;9000158;Chocolates;"measure:1:1;actualPrice:1:2;discountPrice:1:3";"60 G:1; 0.400:2;0:3";http://2261bca0.ngrok.com/baqala/Snacks & chocolates/Chocolates/400x400/D052.png
770;KINDER JOY COLLECTION GIRL;8000500126325;9000145;Chocolates;"measure:1:1;actualPrice:1:2;discountPrice:1:3";"60 G:1; 1.200:2;0:3";
776;KIT KAT POP CHOC ;3800020445471;12247253;Chocolates;"measure:1:1;actualPrice:1:2;discountPrice:1:3";"140 G:1; 1.100:2;0:3";http://2261bca0.ngrok.com/baqala/Snacks & chocolates/Chocolates/400x400/D059.png
777;KIT KAT POP CHOC ;3800020414668;12247252;Chocolates;"measure:1:1;actualPrice:1:2;discountPrice:1:3";"36 G:1; 0.325:2;0:3";http://2261bca0.ngrok.com/baqala/Snacks & chocolates/Chocolates/400x400/D060.png
796;LINDT HELLO CRUNCHY NOUGAT;4000539221705;   LIND2178;Chocolates;"measure:1:1;actualPrice:1:2;discountPrice:1:3";"39 G:1; 0.650:2;0:3";http://2261bca0.ngrok.com/baqala/Snacks & chocolates/Chocolates/400x400/IMG_4123.png
801;LINDT HELLO CRUNCHY NOUGAT;4000539222108;   LIND2218;Chocolates;"measure:1:1;actualPrice:1:2;discountPrice:1:3";"100 G:1; 1.475:2;0:3";http://2261bca0.ngrok.com/baqala/Snacks & chocolates/Chocolates/400x400/D084.png
798;LINDT HELLO SWEET POPCORN;4000539227103;   LIND2718;Chocolates;"measure:1:1;actualPrice:1:2;discountPrice:1:3";"39 G:1; 0.650:2;0:3";http://2261bca0.ngrok.com/baqala/Snacks & chocolates/Chocolates/400x400/D081.png
804;LINDT HELLO SWEET POPCORN ;4000539226809;   LIND2688;Chocolates;"measure:1:1;actualPrice:1:2;discountPrice:1:3";"100 G:1; 1.475:2;0:3";http://2261bca0.ngrok.com/baqala/Snacks & chocolates/Chocolates/400x400/D087.png
795;LINDT HELLO  DARK COOKIE ;4000539225307;   LIND2538;Chocolates;"measure:1:1;actualPrice:1:2;discountPrice:1:3";"39G:1; 0.650:2;0:3";http://2261bca0.ngrok.com/baqala/Snacks & chocolates/Chocolates/400x400/D078.png
803;LINDT HELLO DARK COOKIE ;4000539224508;   LIND2458;Chocolates;"measure:1:1;actualPrice:1:2;discountPrice:1:3";"100 G:1; 1.475:2;0:3";http://2261bca0.ngrok.com/baqala/Snacks & chocolates/Chocolates/400x400/D086.png
807;M & M  MILK CHOCOLATE;4051709;   MCH31800;Chocolates;"measure:1:1;actualPrice:1:2;discountPrice:1:3";"45 G:1; 0.350:2;0:3";http://2261bca0.ngrok.com/baqala/Snacks & chocolates/Chocolates/400x400/IMG_4139.png
808;M & M MILK CHOCOLATE;5900951253348;   MCH36300;Chocolates;"measure:1:1;actualPrice:1:2;discountPrice:1:3";"17 G:1; 0.150:2;0:3";http://2261bca0.ngrok.com/baqala/Snacks & chocolates/Chocolates/400x400/d091.png
809;M & M PEANUT ;5900951255977;   MCH36900;Chocolates;"measure:1:1;actualPrice:1:2;discountPrice:1:3";"20 G:1; 0.150:2;0:3";http://2261bca0.ngrok.com/baqala/Snacks & chocolates/Chocolates/400x400/d092.png
810;M & M PEANUT;4052300;   MCH31700;Chocolates;"measure:1:1;actualPrice:1:2;discountPrice:1:3";"45 G:1; 0.350:2;0:3";http://2261bca0.ngrok.com/baqala/Snacks & chocolates/Chocolates/400x400/d093.png
813;MACKINTOSH'S QUALITY STREET ;6294003551179;12231254;Chocolates;"measure:1:1;actualPrice:1:2;discountPrice:1:3";"375 G:1; 3.375:2;0:3";http://2261bca0.ngrok.com/baqala/Snacks & chocolates/Chocolates/400x400/d097.png
814;MACKINTOSH'S QUALITY STREET;6294003558840;12241863;Chocolates;"measure:1:1;actualPrice:1:2;discountPrice:1:3";"850 G:1; 6.525:2;0:3";http://2261bca0.ngrok.com/baqala/Snacks & chocolates/Chocolates/400x400/d096.png
844;MACKINTOSH QUALITY STREEET;6294003539566;12167130;Chocolates;"measure:1:1;actualPrice:1:2;discountPrice:1:3";"600 G:1; 4.900:2;0:3";http://2261bca0.ngrok.com/baqala/Snacks & chocolates/Chocolates/400x400/D105.png
833;TOBLERONE MILK CHOCOLATE WITH HONEY ;7614500010013;   TCMIB03;Chocolates;"measure:1:1;actualPrice:1:2;discountPrice:1:3";"100 G:1; 0.700:2;0:3";http://2261bca0.ngrok.com/baqala/Snacks & chocolates/Chocolates/400x400/d117.png
835;TOBLERONE MILK CHOCOLATE WITH HONEY;76145759;   TCMIB01;Chocolates;"measure:1:1;actualPrice:1:2;discountPrice:1:3";"35 G:1; 0.275:2;0:3";http://2261bca0.ngrok.com/baqala/Snacks & chocolates/Chocolates/400x400/d119 (2).png
853;HARIBO FUNNY MIX  ;8691216022027;   HAR-08-01;Candy & Gums;"measure:1:1;actualPrice:1:2;discountPrice:1:3";"100 G:1; 0.575:2;0:3";http://2261bca0.ngrok.com/baqala/Snacks & chocolates/Candy & Gums//400x400/IMG_4132-copy.png
854;HARIBO FUNNY MIX  ;8691216022522;   HAR-08-02;Candy & Gums;"measure:1:1;actualPrice:1:2;discountPrice:1:3";"200 G:1; 1.100:2;0:3";http://2261bca0.ngrok.com/baqala/Snacks & chocolates/Candy & Gums/400x400/IMG_4132-copy.png
855;HARIBO GOLDEN BEARS ;8691216020627;   HAR0101;Candy & Gums;"measure:1:1;actualPrice:1:2;discountPrice:1:3";"80 G:1; 0.575:2;0:3";http://2261bca0.ngrok.com/baqala/Snacks & chocolates/Candy & Gums/400x400/IMG_0496-copy.png
856;HARIBO GOLDEN BEARS ;8691216024519;   HAR-01-02;Candy & Gums;"measure:1:1;actualPrice:1:2;discountPrice:1:3";"160 G:1; 1.100:2;0:3";http://2261bca0.ngrok.com/baqala/Snacks & chocolates/Candy & Gums/400x400/IMG_0492-copy.png
859;HARIBO GOLDEN BEARS ;8691216020610;;Candy & Gums;"measure:1:1;actualPrice:1:2;discountPrice:1:3";"40 G:1; 0.575:2;0:3";http://2261bca0.ngrok.com/baqala/Snacks & chocolates/Candy & Gums/400x400/IMG_0496-copy.png
857;HARIBO HAPPY COLA ;8691216025103;   HAR-05-02;Candy & Gums;"measure:1:1;actualPrice:1:2;discountPrice:1:3";"200 G:1; 1.100:2;0:3";http://2261bca0.ngrok.com/baqala/Snacks & chocolates/Candy & Gums/400x400/IMG_0490-copy.png
858;HARIBO HAPPY COLA ;8691216022010;   HAR-05-01;Candy & Gums;"measure:1:1;actualPrice:1:2;discountPrice:1:3";"80 G:1; 0.575:2;0:3";http://2261bca0.ngrok.com/baqala/Snacks & chocolates/Candy & Gums/400x400/IMG_0485-copy.png
871;BAJA DELUXE MIXED;6281105791510;   BAJ24;Dry Fruits & Nuts;"measure:1:1;actualPrice:1:2;discountPrice:1:3";"500 G:1; 3.875:2;0:3";
881;BAJA DELUXE MIXED NUTS ;6281105790124;   BAJ18;Dry Fruits & Nuts;"measure:1:1;actualPrice:1:2;discountPrice:1:3";"160 G:1; 1.500:2;0:3";http://2261bca0.ngrok.com/baqala/Snacks & Chocolates/Nuts & Dry Fruits/400x400/IMG_4129.png
884;KRIKITA GOLD MIX ;22644072922;93858;Dry Fruits & Nuts;"measure:1:1;actualPrice:1:2;discountPrice:1:3";"50 G:1; 0.700:2;0:3";http://2261bca0.ngrok.com/baqala/Snacks & Chocolates/Nuts & Dry Fruits/400x400/IMG_0702.png
885;KRIKITA GOLD MIX ;22644072366;93873;Dry Fruits & Nuts;"measure:1:1;actualPrice:1:2;discountPrice:1:3";"454 G:1; 5.600:2;0:3";http://2261bca0.ngrok.com/baqala/Snacks & Chocolates/Nuts & Dry Fruits/400x400/file000498.png
893;AL RIFAI ASSORTED MIXED NUTS;6271100040881;   NUTS52;Dry Fruits & Nuts;"measure:1:1;actualPrice:1:2;discountPrice:1:3";"500 G:1; 2.975:2;0:3";http://2261bca0.ngrok.com/baqala/Snacks & Chocolates/Nuts & Dry Fruits/400x400/file000437.png
894;AL RIFAI ASSORTED MIXED NUTS;6271100040058;   NUTS46;Dry Fruits & Nuts;"measure:1:1;actualPrice:1:2;discountPrice:1:3";"200 G:1; 1.250:2;0:3";http://2261bca0.ngrok.com/baqala/Snacks & Chocolates/Nuts & Dry Fruits/400x400/IMG_0687.png
895;AL RIFAI DELUXE MIXED NUTS;6271100040065;   NUTS48;Dry Fruits & Nuts;"measure:1:1;actualPrice:1:2;discountPrice:1:3";"200 G:1; 1.575:2;0:3";http://2261bca0.ngrok.com/baqala/Snacks & Chocolates/Nuts & Dry Fruits/400x400/file000462.png
896;AL RIFAI DELUXE MIXED NUTS;6271100040898;5140043;Dry Fruits & Nuts;"measure:1:1;actualPrice:1:2;discountPrice:1:3";"500 G:1; 3.575:2;0:3";http://2261bca0.ngrok.com/baqala/Snacks & Chocolates/Nuts & Dry Fruits/400x400/file000515.png
906;BAJA SALTED CASHEW ;6281105790087;   BAJ5;Dry Fruits & Nuts;"measure:1:1;actualPrice:1:2;discountPrice:1:3";"160 G:1; 1.400:2;0:3";http://2261bca0.ngrok.com/baqala/Snacks & Chocolates/Nuts & Dry Fruits/400x400/file000502.png
907;BAJA SALTED CASHEW;6271100043714;   14142HOF5;Dry Fruits & Nuts;"measure:1:1;actualPrice:1:2;discountPrice:1:3";"220 G:1; 3.975:2;0:3";http://2261bca0.ngrok.com/baqala/Snacks & Chocolates/Nuts & Dry Fruits/400x400/file000502.png
954;MOODS CHOCO CONDOM ;8904068501290;   DIA72;Condoms;"measure:1:1;actualPrice:1:2;discountPrice:1:3";"12 PCS:1; 2.700:2;0:3";http://2261bca0.ngrok.com/baqala/Cosmetics & Personal care/Condoms/400x400/IMG_1703-copy.png
955;MOODS CHOCO CONDOM ;8904068502013;   MCHOCO;Condoms;"measure:1:1;actualPrice:1:2;discountPrice:1:3";"3 PCS:1; 1.000:2;0:3";http://2261bca0.ngrok.com/baqala/Cosmetics & Personal care/Condoms/400x400/IMG_1672-copy.png
964;MOODS EXTRA LONG CONDOM ;8904068501863;   DIA79;Condoms;"measure:1:1;actualPrice:1:2;discountPrice:1:3";"12 PCS:1; 3.375:2;0:3";
965;MOODS EXTRA LONG CONDOM;8904068502044;   DIA80;Condoms;"measure:1:1;actualPrice:1:2;discountPrice:1:3";"3 PCS:1; 1.075:2;0:3";http://2261bca0.ngrok.com/baqala/Cosmetics & Personal care/Condoms/400x400/IMG_1659-copy.png
1054;ELVIVE OIL SHAMPOO DRY HAIR ;3610340020025;   1726-00498;Hair Care;"measure:1:1;actualPrice:1:2;discountPrice:1:3";"400 ML:1; 2.150:2;0:3";http://2261bca0.ngrok.com/baqala/Cosmetics & Personal care/Hair care/400x400/IMG_2388.png
1055;ELVIVE OIL SHAMPOO DRY HAIR ;3610340019944;   1726-00496;Hair Care;"measure:1:1;actualPrice:1:2;discountPrice:1:3";"200 ML:1; 1.300:2;0:3";http://2261bca0.ngrok.com/baqala/Cosmetics & Personal care/Hair care/400x400/IMG_4472.png
1060;ELVIVE TOTAL REPAIR SHAMPOO;3610340006463;   1726-00454;Hair Care;"measure:1:1;actualPrice:1:2;discountPrice:1:3";"200 ML:1; 1.300:2;0:3";http://2261bca0.ngrok.com/baqala/Cosmetics & Personal care/Hair care/400x400/IMG_4411.png
1062;ELVIVE TOTAL REPAIR SHAMPOO;3600521767818;   1726-00105;Hair Care;"measure:1:1;actualPrice:1:2;discountPrice:1:3";"400 ML:1; 2.300:2;0:3";http://2261bca0.ngrok.com/baqala/Cosmetics & Personal care/Hair care/400x400/IMG_4535.png
1147;MODESS REGULER NON WINGS;8850007371397;3070400011;Sanitary Pads;"measure:1:1;actualPrice:1:2;discountPrice:1:3";"8 PADS:1; 0.675:2;0:3";http://2261bca0.ngrok.com/baqala/Cosmetics & Personal care/Sanitary pads/400x400/IMG_1963.png
1145;MODESS REGULAR NON WING ;8850007371441;3070800331;Sanitary Pads;"measure:1:1;actualPrice:1:2;discountPrice:1:3";"12 PADS:1; 0.950:2;0:3";http://2261bca0.ngrok.com/baqala/Cosmetics & Personal care/Sanitary pads/400x400/IMG_1991.png
1126;ALWAYS PANTILINER DISCOMFORT T NORMAL ;4015400625001;30708004;Sanitary Pads;"measure:1:1;actualPrice:1:2;discountPrice:1:3";"24 PCS:1; 1.600:2;0:3";http://2261bca0.ngrok.com/baqala/Cosmetics & Personal care/Sanitary pads/400x400/IMG_2479.png
1127;ALWAYS PANTILINER DISCOMFORT T NORMAL ;4015400624936;30708001;Sanitary Pads;"measure:1:1;actualPrice:1:2;discountPrice:1:3";"24 PCS:1; 1.975:2;0:3";
1130;ALWAYS SENSITIVE I SUPER WINGS;4015400264156;30704003;Sanitary Pads;"measure:1:1;actualPrice:1:2;discountPrice:1:3";"10 PADS:1; 0.600:2;0:3";http://2261bca0.ngrok.com/baqala/Cosmetics & Personal care/Sanitary pads/400x400/IMG_1960.png
1131;ALWAYS SENSITIVE I SUPER WINGS;4015400264187;30701001;Sanitary Pads;"measure:1:1;actualPrice:1:2;discountPrice:1:3";"30 PADS:1; 1.300:2;0:3";http://2261bca0.ngrok.com/baqala/Cosmetics & Personal care/Sanitary pads/400x400/IMG_1966.png
1135;JOHNSONS CAREFREE ALOE;3574660534405;   LGC102;Sanitary Pads;"measure:1:1;actualPrice:1:2;discountPrice:1:3";"58 PADS:1; 2.750:2;0:3";http://2261bca0.ngrok.com/baqala/Cosmetics & Personal care/Sanitary pads/400x400/IMG_2491.png
1136;JOHNSONS CAREFREE ALOE ;3574660224863;   100261C;Sanitary Pads;"measure:1:1;actualPrice:1:2;discountPrice:1:3";"32 PCS:1; 1.850:2;0:3";http://2261bca0.ngrok.com/baqala/Cosmetics & Personal care/Sanitary pads/400x400/IMG_1946.png
1137;JOHNSONS CAREFREE ALOE ;3574660535198;   100261D;Sanitary Pads;"measure:1:1;actualPrice:1:2;discountPrice:1:3";"30 PCS:1; 1.800:2;0:3";http://2261bca0.ngrok.com/baqala/Cosmetics & Personal care/Sanitary pads/400x400/IMG_2488.png
1168;JOHNSONS COTTON BUDS;5000207582502;100230;"""Diapers";"measure:1:1;actualPrice:1:2;discountPrice:1:3";"100 PCS:1; 1.150:2;0:3";http://2261bca0.ngrok.com/baqala/Baby care/Diapers, Wipes & Cottons/400x400/IMG_2473.png
1169;JOHNSONS COTTON BUDS;5000207584506;100240;"""Diapers";"measure:1:1;actualPrice:1:2;discountPrice:1:3";"200 PCS:1; 1.900:2;0:3";http://2261bca0.ngrok.com/baqala/Baby care/Diapers, Wipes & Cottons/400x400/IMG_2467.png
1176;PAMPERS  ACTI BABY SIZE 1;4015400406907;   BABY223;"""Diapers";"measure:1:1;actualPrice:1:2;discountPrice:1:3";"2-5KG:1; 1.800:2;0:3";
1177;PAMPERS ACTI BABY SIZE 3  ;4015400405948;104011970;"""Diapers";"measure:1:1;actualPrice:1:2;discountPrice:1:3";"4-9 KG:1; 1.875:2;0:3";
1178;PAMPERS ACTI  BABY SIZE 4;4015400406303;   BABY229;"""Diapers";"measure:1:1;actualPrice:1:2;discountPrice:1:3";"7-8 KG:1; 1.800:2;0:3";http://2261bca0.ngrok.com/baqala/Baby care/Diapers, Wipes & Cottons/400x400/IMG_2527.png
1179;PAMPERS  ACTI- BABY SIZE 5;4015400406662;   BABY220;"""Diapers";"measure:1:1;actualPrice:1:2;discountPrice:1:3";"11-25 KG:1; 1.875:2;0:3";http://2261bca0.ngrok.com/baqala/Baby care/Diapers, Wipes & Cottons/400x400/IMG_2521.png
1180;HUGGIES 1 ;6281005800862;HUG001;"""Diapers";"measure:1:1;actualPrice:1:2;discountPrice:1:3";"5 KG:1;2.500:2;0:3";http://2261bca0.ngrok.com/baqala/Baby care/Diapers, Wipes & Cottons/400x400/IMG_3951.png
1181;HUGGIES 2 ;6281005800879;HUG002;"""Diapers";"measure:1:1;actualPrice:1:2;discountPrice:1:3";"4-6 KG:1;2.500:2;0:3";http://2261bca0.ngrok.com/baqala/Baby care/Diapers, Wipes & Cottons/400x400/IMG_3959.png
1182;HUGGIES 3 MEDIUM;5029053530963;HUG003;"""Diapers";"measure:1:1;actualPrice:1:2;discountPrice:1:3";"5-8 KG:1;2.500:2;0:3";http://2261bca0.ngrok.com/baqala/Baby care/Diapers, Wipes & Cottons/400x400/IMG_3953.png
1183;HUGGIES 4 XL;5029053541730;HUG004;"""Diapers";"measure:1:1;actualPrice:1:2;discountPrice:1:3";"9-20 KG:1;2.500:2;0:3";http://2261bca0.ngrok.com/baqala/Baby care/Diapers, Wipes & Cottons/400x400/IMG_3957.png
1184;JOHNSONS BABY JELLY;6001011321133;100067;"""Lotions";"measure:1:1;actualPrice:1:2;discountPrice:1:3";"250 ML:1; 1.250:2;0:3";
1185;JOHNSONS BABY JELLY;60052377;100066;"""Lotions";"measure:1:1;actualPrice:1:2;discountPrice:1:3";"100 ML:1; 0.725:2;0:3";http://2261bca0.ngrok.com/baqala/Baby care/Lotions, Shampoo & Creams/400x400/IMG_2470.png
1188;JOHNSONS BABY SHAMPOO NO MORE TANGLE;3574660500714;   100163K;"""Lotions";"measure:1:1;actualPrice:1:2;discountPrice:1:3";"200 ML:1; 1.150:2;0:3";http://2261bca0.ngrok.com/baqala/Baby care/Lotions, Shampoo & Creams/400x400/IMG_2440.png
1191;JOHNSONS BABY SHAMPOO NO MORE TANGLE;3574661069227;   100163L;"""Lotions";"measure:1:1;actualPrice:1:2;discountPrice:1:3";"500 ML:1; 2.350:2;0:3";http://2261bca0.ngrok.com/baqala/Baby care/Lotions, Shampoo & Creams/400x400/IMG_2451.png
1197;JOHNSONS BABY OIL;8410207100724;100096;"""Lotions";"measure:1:1;actualPrice:1:2;discountPrice:1:3";"300 ML:1; 2.650:2;0:3";http://2261bca0.ngrok.com/baqala/Baby care/Lotions, Shampoo & Creams/400x400/IMG_3942.png
1198;JOHNSONS BABY OIL;8410207140409;100098;"""Lotions";"measure:1:1;actualPrice:1:2;discountPrice:1:3";"500 ML:1; 3.625:2;0:3";http://2261bca0.ngrok.com/baqala/Baby care/Lotions, Shampoo & Creams/400x400/IMG_2437.png
1195;JOHNSONS BABY FRESH POWDER;3574660674293;100130;"""Lotions";"measure:1:1;actualPrice:1:2;discountPrice:1:3";"200 ML:1; 1.825:2;0:3";http://2261bca0.ngrok.com/baqala/Baby care/Lotions, Shampoo & Creams/400x400/IMG_2454.png
1200;JOHNSONS BABY POWDER FRESH;3574660674323;100132;"""Lotions";"measure:1:1;actualPrice:1:2;discountPrice:1:3";"500 G:1; 3.625:2;0:3";http://2261bca0.ngrok.com/baqala/Baby care/Lotions, Shampoo & Creams/400x400/IMG_2435.png
1202;S26 GOLD ;300087217019;   01WL0B01;Baby Food;"measure:1:1;actualPrice:1:2;discountPrice:1:3";"400 G:1; 4.675:2;0:3";
1203;S26 GOLD ;300087217026;   01WL0B02;Baby Food;"measure:1:1;actualPrice:1:2;discountPrice:1:3";"900 G:1; 8.600:2;0:3";http://2261bca0.ngrok.com/baqala/Baby care/Baby food/400x400/IMG_2427.png
1204;PROMIL GOLD;300087227049;   01WL0B03;Baby Food;"measure:1:1;actualPrice:1:2;discountPrice:1:3";"400 G:1; 4.675:2;0:3";http://2261bca0.ngrok.com/baqala/Baby care/Baby food/400x400/IMG_2416.png
1205;PROMIL GOLD ;300087227056;   01WL0B04;Baby Food;"measure:1:1;actualPrice:1:2;discountPrice:1:3";"900 G:1; 8.600:2;0:3";http://2261bca0.ngrok.com/baqala/Baby care/Baby food/400x400/IMG_2420.png
1206;PROGRESS GOLD ;300087220019;   01WL0B05;Baby Food;"measure:1:1;actualPrice:1:2;discountPrice:1:3";"400 G:1; 3.950:2;0:3";http://2261bca0.ngrok.com/baqala/Baby care/Baby food/400x400/IMG_3939.png
1207;PROGRESS GOLD ;300087220026;   01WL0B06;Baby Food;"measure:1:1;actualPrice:1:2;discountPrice:1:3";"900 G:1; 7.250:2;0:3";
1208;NESTLE- NAN 1 BABY FOOD;7613032334741;12252632;Baby Food;"measure:1:1;actualPrice:1:2;discountPrice:1:3";"400 G:1; 4.000:2;0:3";http://2261bca0.ngrok.com/baqala/Baby care/Baby food/400x400/IMG_2425.png
1209;NESTLE- NAN3 BABY  FOOD ;7613031808335;12110450;Baby Food;"measure:1:1;actualPrice:1:2;discountPrice:1:3";"400 G:1; 3.800:2;0:3";http://2261bca0.ngrok.com/baqala/Baby care/Baby food/400x400/IMG_2412.png
1244;ZWAN LUNCHEON MEAT;8714555000300;   ZW02N;Canned Food;"measure:1:1;actualPrice:1:2;discountPrice:1:3";"340 G:1; 0.850:2;0:3";
1245;ZWAN LUNCHEON MEAT ;8714555191732;   ZWO1N;Canned Food;"measure:1:1;actualPrice:1:2;discountPrice:1:3";"200 G:1; 0.650:2;0:3";http://2261bca0.ngrok.com/baqala/Food & Grocery/Canned Food/400x400/IMG_2971.png
1251;CADBURY COCOA POWDER;5000312000670;38145;Canned Food;"measure:1:1;actualPrice:1:2;discountPrice:1:3";"250 G:1; 1.150:2;0:3";http://2261bca0.ngrok.com/baqala/Food & Grocery/Canned Food/400x400/IMG_2914.png
1252;CADBURY COCOA POWDER ;5000312000694;   CDCC01;Canned Food;"measure:1:1;actualPrice:1:2;discountPrice:1:3";"125 G:1; 1.075:2;0:3";http://2261bca0.ngrok.com/baqala/Food & Grocery/Canned Food/400x400/IMG_2967.png
1263;DEL MONTE FRUIT COCKTAIL;24000024675;   DEL464;Canned Food;"measure:1:1;actualPrice:1:2;discountPrice:1:3";"420 G:1; 0.775:2;0:3";http://2261bca0.ngrok.com/baqala/Food & Grocery/Canned Food/400x400/IMG_2872.png
1264;DEL MONTE FRUIT COCKTAIL;24000011477;   DEL677;Canned Food;"measure:1:1;actualPrice:1:2;discountPrice:1:3";"227 G:1; 0.650:2;0:3";
1267;QBB PURE GEE;8888011140685;   QBB-01-06;Canned Food;"measure:1:1;actualPrice:1:2;discountPrice:1:3";"200 G:1; 1.450:2;0:3";http://2261bca0.ngrok.com/baqala/Food & Grocery/Canned Food/400x400/IMG_2981.png
1268;QBB PURE GHEE;9310324876627;   QBB-01-01/B;Canned Food;"measure:1:1;actualPrice:1:2;discountPrice:1:3";"400 G:1; 2.675:2;0:3";http://2261bca0.ngrok.com/baqala/Food & Grocery/Canned Food/400x400/IMG_2986.png
1310;INDIA GATE BASMATI RICE ;690225104548;   IGCRW2;Rice & Flour;"measure:1:1;actualPrice:1:2;discountPrice:1:3";"2 KG:1; 3.450:2;0:3";http://2261bca0.ngrok.com/baqala/Food & Grocery/Rice & Flour/400x400/IMG_3081.png
1311;INDIA GATE BASMATI RICE;690225101172;   IGCRW1;Rice & Flour;"measure:1:1;actualPrice:1:2;discountPrice:1:3";"1 KG:1; 1.850:2;0:3";http://2261bca0.ngrok.com/baqala/Food & Grocery/Rice & Flour/400x400/IMG_3074.png
1312;INDIA GATE BASMATI RICE;690225103176;   IGCRW3;Rice & Flour;"measure:1:1;actualPrice:1:2;discountPrice:1:3";"5 KG:1; 8.300:2;0:3";
1313;C FOUR RICE ;2010100256762;1001;Rice & Flour;"measure:1:1;actualPrice:1:2;discountPrice:1:3";"10 KG:1; 6.600:2;0:3";http://2261bca0.ngrok.com/baqala/Food & Grocery/Rice & Flour/400x400/IMG_3217.png
1314;C FOUR RICE;8852116022238;1002;Rice & Flour;"measure:1:1;actualPrice:1:2;discountPrice:1:3";"5 KG:1; 3.600:2;0:3";http://2261bca0.ngrok.com/baqala/Food & Grocery/Rice & Flour/400x400/IMG_3213.png
1315;NURJAHAN BASMATI RICE;690225104838;   NUBR01;Rice & Flour;"measure:1:1;actualPrice:1:2;discountPrice:1:3";"1 KG:1; 1.000:2;0:3";http://2261bca0.ngrok.com/baqala/Food & Grocery/Rice & Flour/400x400/IMG_3094.png
1316;NUR JAHAN BASMATHI RICE ;690225104845;   NUBR02;Rice & Flour;"measure:1:1;actualPrice:1:2;discountPrice:1:3";"2 KG:1; 1.900:2;0:3";http://2261bca0.ngrok.com/baqala/Food & Grocery/Rice & Flour/400x400/IMG_3096.png
1317;NURJAHAN BASMATI RICE ;690225104852;   NUBR05;Rice & Flour;"measure:1:1;actualPrice:1:2;discountPrice:1:3";"5 KG:1; 8.625:2;0:3";
1318;TILDA BASMATI RICE ;8901144100507;25630019;Rice & Flour;"measure:1:1;actualPrice:1:2;discountPrice:1:3";"5 KG:1; 8.650:2;0:3";
1319;TILDA BASMATI RICE;8901144312009;25630089;Rice & Flour;"measure:1:1;actualPrice:1:2;discountPrice:1:3";"2 KG:1; 3.500:2;0:3";http://2261bca0.ngrok.com/baqala/Food & Grocery/Rice & Flour/400x400/IMG_3191.png
1583;SMOKING ORGANIC KING SIZE;8414775015749;   A7324;Smoking Papers& Filters;"measure:1:1;actualPrice:1:2;discountPrice:1:3";"50'S:1; 0.500:2;0:3";http://2261bca0.ngrok.com/baqala/Cigarrettes & Smoking Goods/Smoking Goods/400x400/IMG_1986.png
1584;SMOKING ORGANIC SMALL;8414775015701;   A7323;Smoking Papers& Filters;"measure:1:1;actualPrice:1:2;discountPrice:1:3";"50'S:1; 0.500:2;0:3";http://2261bca0.ngrok.com/baqala/Cigarrettes & Smoking Goods/Smoking Goods/400x400/IMG_2582.png
1610;COMFORT FLORA SOFT;6281006120204;AG001;Laundry Products;"measure:1:1;actualPrice:1:2;discountPrice:1:3";"3 L:1; 2.900:2;0:3";http://2261bca0.ngrok.com/baqala/Household & Non Food/Laundry Products/400x400/IMG_2239.png
1611;COMFORT FLORA SOFT;6281006100220;AG002;Laundry Products;"measure:1:1;actualPrice:1:2;discountPrice:1:3";"2 L:1; 1.950:2;0:3";http://2261bca0.ngrok.com/baqala/Household & Non Food/Laundry Products/400x400/IMG_2244.png
1613;COMFORT FLORA SOFT;6281006100206;AG004;Laundry Products;"measure:1:1;actualPrice:1:2;discountPrice:1:3";"750 ML:1; 1.100:2;0:3";http://2261bca0.ngrok.com/baqala/Household & Non Food/Laundry Products/400x400/IMG_2387.png
1613;ARIEL GREEN ;4015600296599;AG012;Laundry Products;"measure:1:1;actualPrice:1:2;discountPrice:1:3";"1.5 KG:1; 2.950:2;0:3";
1624;ARIEL GREEN ;4015600296568;AG015;Laundry Products;"measure:1:1;actualPrice:1:2;discountPrice:1:3";"260 G:1; 0.550:2;0:3";http://2261bca0.ngrok.com/baqala/Household & Non Food/Laundry Products/400x400/IMG_4318.png
1629;DETTOL DISINFECTANT;50158928;11109103;Cleaners & Disinfectant;"measure:1:1;actualPrice:1:2;discountPrice:1:3";"500 ML:1; 2.150:2;0:3";http://2261bca0.ngrok.com/baqala/Household & Non Food/Cleaners/400x400/IMG_2162.png
1630;DETTOL DISINFECTANT;50158911;11109102;Cleaners & Disinfectant;"measure:1:1;actualPrice:1:2;discountPrice:1:3";"250 ML:1; 1.350:2;0:3";http://2261bca0.ngrok.com/baqala/Household & Non Food/Cleaners/400x400/IMG_2157.png
1655;KLENEEX HAND TOWELS;6281002403400;20016046;Tisuues;"measure:1:1;actualPrice:1:2;discountPrice:1:3";"230MM:1; 0.800:2;0:3";
1656;KLENEEX HAND TOWELS;6281002403301;20016047;Tisuues;"measure:1:1;actualPrice:1:2;discountPrice:1:3";"28X2 ROLLS:1; 0.900:2;0:3";
