 Name;Reference #;cat;Image url;Price Tax included;Product Variance
7 DAYS CROISSANT VANILA & CHOCOLATE;6281183000108;Bakery;http://api.getbaqala.com/upload/bakery%20and%20dairy/bakery/7%20DAYS%20CROISSANT%20VANILA%20&%20CHOCOLATE.jpg;0.100;Weight: 55 GM
ALMARAI 7DAYS CAKE BAR WITH CHOCO FILLING;6281183001488;Bakery;http://api.getbaqala.com/upload/bakery%20and%20dairy/bakery/ALMARAI%207DAYS%20CAKE%20BAR%20WITH%20CHOCO%20FILLING.png;0.625;Weight: 12X25 GM
ALMARAI 7DAYS CAKE BAR WITH VANILA FILLING;6281183000245;Bakery;http://api.getbaqala.com/upload/bakery%20and%20dairy/bakery/ALMARAI%207DAYS%20CAKE%20BAR%20WITH%20VANILA%20FILLING.jpg;0.625;Weight: 12X25 GM
HARVEST BUTTER BREAD;2030343063002;Bakery;http://api.getbaqala.com/upload/bakery%20and%20dairy/bakery/HARVEST%20BUTTER%20BREAD.jpg;0.300;Weight: 1 PACK
HARVEST HAMBURGER BREAD;2030343063439;Bakery;http://api.getbaqala.com/upload/bakery%20and%20dairy/bakery/HARVEST%20HAMBURGER%20BREAD.jpg;0.260;Weight: 1 PACK
HARVEST HOTDOG ROLL LARGE;2030343063163;Bakery;http://api.getbaqala.com/upload/bakery%20and%20dairy/bakery/HARVEST%20HOTDOG%20ROLL%208%20LARGE.jpg;0.325;Weight: 8 PCS
HARVEST MONAI ;2030343063590;Bakery;http://api.getbaqala.com/upload/bakery%20and%20dairy/bakery/LUSINE%20BROWN%20SQUARES%20BREAD.png;0.200;Weight: 10 PCS
LUSINE BURGER BUN SESAME SEED;6281007042871;Bakery;http://api.getbaqala.com/upload/bakery%20and%20dairy/bakery/LUSINE%20BURGER%20BUN%20SESAME%20SEED.jpg;0.375;Weight: 1 PACK
LUSINE MILK SANDWICH ROLL;6281007039994;Bakery;http://api.getbaqala.com/upload/bakery%20and%20dairy/bakery/LUSINE%20MILK%20SANDWICH%20ROLL.jpg;0.275;Weight: 200 GM
LUSINE WHITE SQUARE BREAD;6281007036009;Bakery;http://api.getbaqala.com/upload/bakery%20and%20dairy/bakery/LUSINE%20SQUARE.jpg;0.425;Weight: 252 GM
LUSINE TASBEERA CREAM CHEESE SANDWICH;6281007036023;Bakery;http://api.getbaqala.com/upload/bakery%20and%20dairy/bakery/LUSINE%20TASBEERA%20CREAM%20CHEESE%20SANDWICH.jpg;0.270;Weight: 112.5 GM
LUSINE WHITE SANDWICH WRAPS;6281007041935;Bakery;http://api.getbaqala.com/upload/bakery%20and%20dairy/bakery/LUSINE%20WHITE%20SANDWICH%20WRAPS.jpg;0.525;Weight: 300 GM
