 Name;Category (x,y,z..);Image url;Price Tax included;Product Variance
CHIKOO INDIA;Fruits;http://api.getbaqala.com/upload/fruits/Chikoo%20India%20-%20Zapota%20.jpg;0.848;Weight: 500 GM
GRAPES RED AUSTRALIA;Fruits;http://api.getbaqala.com/upload/fruits/Red%20Grapes%20Australia.jpg;1.598;Weight: 500 GM
KIWI ITALY;Fruits;http://api.getbaqala.com/upload/fruits/Kiwi%20Zespri%20Italy%20.png;1.198;Weight: 500 GM
LYCHEE AFRICA;Fruits;http://api.getbaqala.com/upload/fruits/Lychee%20Africa%20.jpg;1.173;Weight: 500 GM
MANGO S AFRICA;Fruits;http://api.getbaqala.com/upload/fruits/Mango%20South%20Africa%20.jpg;0.848;Weight: 500 GM
SWEET MELON INDIA;Fruits;http://api.getbaqala.com/upload/fruits/Sweet%20Melon%20India.jpg;0.995;Weight: 1 KG
APPLE GREEN FRANCE;Fruits;http://api.getbaqala.com/upload/fruits/Apple%20Green%20France.jpeg;0.373;Weight: 500 GM
APPLE GREEN USA;Fruits;http://api.getbaqala.com/upload/fruits/Apple%20Green%20USA.jpg;0.548;Weight: 500 GM
AVOCADO MEXICO;Fruits;http://api.getbaqala.com/upload/fruits/Avocado%20Mexico%20.jpeg;1.448;Weight: 500 GM
BLUEBERRIES;Fruits;http://api.getbaqala.com/upload/fruits/Bllueberries%20Pack%201.jpg;1.250;Weight: 1 PACK(125 GM)
GRAPE FRUIT RED S AFRICA;Fruits;http://api.getbaqala.com/upload/fruits/Grape%20Fruit%20South%20Africa.png;0.298;Weight: 500 GM
GRAPES BLACK AUSTRALIA;Fruits;http://api.getbaqala.com/upload/fruits/Black%20Grapes%20Australia.jpeg;1.548;Weight: 500 GM
GRAPES BLACK ITALY;Fruits;http://api.getbaqala.com/upload/fruits/Black%20Grapes%20Italy.jpg;0.848;Weight: 500 GM
GRAPES RED GLOBE S AFRICA;Fruits;http://api.getbaqala.com/upload/fruits/Red%20Grape%20Globe%20South%20Africa.JPG;0.648;Weight: 500 GM
GRAPES RED ROSE S AFRICA;Fruits;http://api.getbaqala.com/upload/fruits/Grapes%20Red%20Roses%20South%20Africa.jpg;1.248;Weight: 500 GM
GRAPES WHITE INDIA;Fruits;http://api.getbaqala.com/upload/fruits/Grape%20White%20India%20Box%20.jpg;0.645;Weight: 1 PACK
GRAPES WHITE INDIA;Fruits;http://api.getbaqala.com/upload/fruits/Grape%20White%20India%20Box%20.jpg;0.498;Weight: 500 GM
GUAVA EGYPT;Fruits;http://api.getbaqala.com/upload/fruits/Guava%20Egypt.png;0.848;Weight: 500 GM
HONEY MELON OMAN;Fruits;http://api.getbaqala.com/upload/fruits/Honey%20Melon%20Oman.jpg;1.045;Weight: 1 KG
KAKA SPAIN;Fruits;http://api.getbaqala.com/upload/fruits/Kaka%20Spain.jpeg;1.198;Weight: 500 GM
KIWI GREEN ITALY;Fruits;http://api.getbaqala.com/upload/fruits/Kiwi%20Green%20Italy.jpeg;0.648;Weight: 500 GM
MANDARINE EGYPT;Fruits;http://api.getbaqala.com/upload/fruits/Mandarine%20Egypt.jpg;0.298;Weight: 500 GM
MANGO ALPHONSO INDIA;Fruits;http://api.getbaqala.com/upload/fruits/Mango%20alphonso%20India.jpeg;1.448;Weight: 500 GM
MANGO AUSTRALIA;Fruits;http://api.getbaqala.com/upload/fruits/Mango%20Australia%20.jpeg;1.748;Weight: 500 GM
MANGO BADAMI INDIA;Fruits;http://api.getbaqala.com/upload/fruits/Mango%20Badami%20India.jpg;1.298;Weight: 500 GM
MANGOSTEEN;Fruits;http://api.getbaqala.com/upload/fruits/Mangosteen.jpg;1.995;Weight: 1 PACK
MELON ROCK OMAN;Fruits;http://api.getbaqala.com/upload/fruits/Melon%20Rock%20Oman.jpeg;1.555;Weight: 1 KG
NACTARINE AUSTRALIA;Fruits;http://api.getbaqala.com/upload/fruits/Nactarine%20Australia.jpeg;1.548;Weight: 500 GM
ORANGE MANDARIN MOROCCO;Fruits;http://api.getbaqala.com/upload/fruits/Orange%20Mandarine%20Morocco.jpg;0.498;Weight: 500 GM
PAPPAYA INDIA;Fruits;http://api.getbaqala.com/upload/fruits/Papaya%20India%20.jpeg;0.900;Weight: 1 KG
PEACHES AUSTRALIA;Fruits;http://api.getbaqala.com/upload/fruits/Papaya%20Australia.jpeg;1.548;Weight: 500 GM
PEANUTS INDIA;Fruits;http://api.getbaqala.com/upload/fruits/Peanut%20India.jpg;0.895;Weight: 1 PACK
PINEAPPLE INDIA;Fruits;http://api.getbaqala.com/upload/fruits/Pineapple%20India.jpg;1.545;Weight: 1 PC
PINEAPPLE PHILIPINES;Fruits;http://api.getbaqala.com/upload/fruits/Pineapple%20Philippenes.jpeg;1.545;Weight: 1 PC
PLUMS S AFRICA;Fruits;http://api.getbaqala.com/upload/fruits/Plumes%20Red%20South%20Africa%20.jpg;1.048;Weight: 500 GM
PLUMS YELLOW S AFRICA;Fruits;http://api.getbaqala.com/upload/fruits/Plums%20Yellow%20South%20Africa%20.jpg;0.848;Weight: 500 GM
POMEGRANATE INDIA;Fruits;http://api.getbaqala.com/upload/fruits/Pomgranete%20Inia%20.jpg;0.898;Weight: 500 GM
RASPBERRIES;Fruits;http://api.getbaqala.com/upload/fruits/Raspberries-driscolls.jpeg;2.595;Weight: 1 PACK(170 GM)
