 Name;Reference #;categry;Image url;Price Tax included;Product Variance
FINE TOILET ROLL CLASSIC WHITE 10X400SX2PLY;6251001224061;Tissues;http://api.getbaqala.com/upload/tissue/FINE%20TOILET%20ROLL%20CLASSIC%20WHITE%2010X400SX2PLY.jpg;2.175;Weight: 10 PCS
KLEENEX BATH TISSUE DRI SOFT ;6281002400867;Tissues;http://api.getbaqala.com/upload/tissue/KLEENEX%20BATH%20TISSUE%20DRI%20SOFT.jpeg;0.990;Weight: 4 PCS
KLEENEX BATH TISSUE DRI SOFT 8X200S;6281002401031;Tissues;http://api.getbaqala.com/upload/tissue/KLEENEX%20BATH%20TISSUE%20DRI%20SOFT%208X200S.jpg;1.560;Weight: 8 PCS
KLEENEX BATH TISSUES 9+3 FREE;6281002400973;Tissues;http://api.getbaqala.com/upload/tissue/KLEENEX%20BATH%20TISSUES%209+3%20FREE.jpg;2.155;Weight: 9+3 PCS
PASEO TOILET ROLLS 2PLY X 10ROLL;8993053211092;Tissues;http://api.getbaqala.com/upload/tissue/PASEO%20TOILET%20ROLLS%202PLY%20X%2010ROLL.png;1.845;Weight: 10 PCS
