 Name;Reference #;cat;Image url;Price Tax included;Product Variance
ALWAYS PREMIUM NIGHT SUPER;4015400648185;Sanitary Pads;http://api.getbaqala.com/upload/personal/ALWAYS%20PREMIUM%20NIGHT%20SUPER.jpg;1.645;Weight: 30 PCS
ALWAYS THICK SUPER ;4015400245940;Sanitary Pads;http://api.getbaqala.com/upload/personal/ALWAYS%20THICK%20SUPER.jpg;2.550;Weight: 50 PCS
VASELINE JELLY COCOA BUTTER 120 ML;89004845;Body & Skin Care;http://api.getbaqala.com/upload/personal/VASELINE%20JELLY%20COCOA%20BUTTER%20120%20ML.jpg;0.795;Weight: 120 ML
VASELINE JELLY COCOA BUTTER 240 ML;8901030023453;Body & Skin Care;http://api.getbaqala.com/upload/personal/VASELINE%20JELLY%20COCOA%20BUTTER%20240%20ML.jpg;1.495;Weight: 240 ML
VASELINE JELLY COCOA BUTTER 480 ML;8901030023450;Body & Skin Care;http://api.getbaqala.com/upload/personal/VASELINE%20JELLY%20COCOA%20BUTTER%20480%20ML.jpg;2.490;Weight: 480 ML
VASELINE PETROLEUM JELLY 120 ML;89004838;Body & Skin Care;http://api.getbaqala.com/upload/personal/VASELINE%20PETROLLEUM%20JELLY%20120%20ML.jpg;0.815;Weight: 120 ML
VASELINE PETROLEUM JELLY 480 ML;8901030023590;Body & Skin Care;http://api.getbaqala.com/upload/personal/VASELINE%20PETROLEUM%20JELLY%20480%20ML.jpg;2.495;Weight: 480 ML
VASELINE PETROLEUM JELLY 60 ML;89004821;Body & Skin Care;http://api.getbaqala.com/upload/personal/VASELINE%20PETROLEUM%20JELLY%2060%20ML.jpg;0.495;Weight: 60 ML
VASELINE PETROLEUM JELLY ALOE FRESH 120 ML;89004852;Body & Skin Care;http://api.getbaqala.com/upload/personal/VASELINE%20PETROLEUM%20JELLY%20ALOE%20FRESH%20120%20ML.jpg;0.815;Weight: 120 ML
VASELINE PETROLEUM JELLY ALOE FRESH 240 ML;8901030023392;Body & Skin Care;http://api.getbaqala.com/upload/personal/VASELINE%20PETROLEUM%20JELLY%20ALOE%20FRESH%20240%20ML.jpg;1.495;Weight: 240 ML
