Product Name;Product Barcode;Sub Category;Image;Actual Price;Description
TUNA MAYO SANDWICH;130814;Freshli;http://api.getbaqala.com/upload/wholesale/TUNA%20MAYO%20SANDWICH.jpg;1.1;"Ingredients: Tuna, Mayonnaise, Bread May contain: wheat, fish & egg"
CHICKEN MAYO SALAD SANDWICH;130815;Freshli;http://api.getbaqala.com/upload/wholesale/CHICKEN%20MAYO%20SALAD%20SANDWICH.jpg;1.1;"Ingredients: Chicken Breast, Mayonnaise, Mixed Salad, Bread May contain: wheat & egg"
EGG MAYO SANDWICH;130816;Freshli;http://api.getbaqala.com/upload/wholesale/EGG%20MAYO%20SANDWICH.jpg;0.8;"Ingredients: Egg, Mayonnaise, Bread
May contain: wheat & egg"
CHICKEN TIKKA SANDWICH;130817;Freshli;http://api.getbaqala.com/upload/wholesale/CHICKEN%20TIKKA%20SANDWICH.jpg;1.6;"Ingredients: Chicken, Mayonnaise, Spices, Bread
May contain: wheat & egg"