 Name;Category (x,y,z..);Image url;Price Tax included;Product Variance;Description
KARAK TEA CARDAMOM ;Tea & coffee;http://api.getbaqala.com/upload/karaktea/Cardamom-345x315.jpg;1.500;Weight: 10X20 GM;Ingredients: Tea Extract,Sucrose,Milk Powder,Maltodextrin and Cardamom
KARAK TEA CARDAMOM ;Tea & coffee;http://api.getbaqala.com/upload/karaktea/Cardamom-large-345x315.jpg;1.500;Weight: 1 KG;Ingredients: Tea Extract,Sucrose,Milk Powder,Maltodextrin and Cardamom
KARAK TEA CARDAMOM UNSWEETENED;Tea & coffee;http://api.getbaqala.com/upload/karaktea/Unsweetend-Cardamom-345x315.jpg;1.500;Weight: 10X14 GM;Ingredients: Tea Extract,Milk Powder,Maltodextrin and Cardamom
KARAK TEA CARDAMOM UNSWEETENED;Tea & coffee;http://api.getbaqala.com/upload/karaktea/Unsweetend-Cardamom-large-500.jpg;1.500;Weight: 500 GM;Ingredients: Tea Extract,Milk Powder,Maltodextrin and Cardamom
KARAK TEA COFFEE;Tea & coffee;http://api.getbaqala.com/upload/karaktea/Coffee1-345x315.jpg;1.500;Weight: 10X20 GM;Ingredients: Tea Extract,sucrose ,Milk Powder,Maltodextrin and Coffee
KARAK TEA GINGER;Tea & coffee;http://api.getbaqala.com/upload/karaktea/Ginger-345x315.jpg;1.500;Weight: 10X20 GM;Ingredients: Tea Extract,sucrose ,Milk Powder,Maltodextrin and Ginger
KARAK TEA ORIGINAL ;Tea & coffee;http://api.getbaqala.com/upload/karaktea/Original-345x315.jpg;1.500;Weight: 10X20 GM;Ingredients: Tea Extract,Sucrose,Milk Powder, and Maltodextrin
KARAK TEA SAFFRON;Tea & coffee;http://api.getbaqala.com/upload/karaktea/Saffron-345x315.jpg;1.500;Weight: 10X20 GM;Ingredients: Tea Extract,sucrose ,Milk Powder,Maltodextrin and Saffron
KARAK TEA SAFFRON ;Tea & coffee;http://api.getbaqala.com/upload/karaktea/Saffron-large-345x315.jpg;1.500;Weight: 1 KG;Ingredients: Tea Extract,sucrose ,Milk Powder,Maltodextrin and Saffron
KARAK TEA SAFFRON UNSWEETENED;Tea & coffee;http://api.getbaqala.com/upload/karaktea/Unsweetend-Saffron-large-500.jpg;1.500;Weight: 500 GM;Ingredients: Tea Extract,Milk Powder,Maltodextrin and Saffron
